<?xml version="1.0" encoding="UTF-8" standalone="no"?>
<!-- Created with Inkscape (http://www.inkscape.org/) -->

<svg
   width="212.77089mm"
   height="35.125156mm"
   viewBox="0 0 212.77089 35.125156"
   version="1.1"
   id="svg5"
   inkscape:version="1.1 (ce6663b3b7, 2021-05-25)"
   sodipodi:docname="kapitalistischer_zweifach_dark.svg"
   xmlns:inkscape="http://www.inkscape.org/namespaces/inkscape"
   xmlns:sodipodi="http://sodipodi.sourceforge.net/DTD/sodipodi-0.dtd"
   xmlns="http://www.w3.org/2000/svg"
   xmlns:svg="http://www.w3.org/2000/svg">
  <sodipodi:namedview
     id="namedview7"
     pagecolor="#ffffff"
     bordercolor="#666666"
     borderopacity="1.0"
     inkscape:pageshadow="2"
     inkscape:pageopacity="0.0"
     inkscape:pagecheckerboard="0"
     inkscape:document-units="mm"
     showgrid="false"
     inkscape:zoom="0.77504209"
     inkscape:cx="352.23894"
     inkscape:cy="138.70214"
     inkscape:window-width="1920"
     inkscape:window-height="1016"
     inkscape:window-x="0"
     inkscape:window-y="27"
     inkscape:window-maximized="0"
     inkscape:current-layer="layer1" />
  <defs
     id="defs2" />
  <g
     inkscape:label="Ebene 1"
     inkscape:groupmode="layer"
     id="layer1"
     transform="translate(-23.676796,-23.514156)">
    <path
       style="fill:#ffffff;fill-opacity:1;stroke-width:0.182714"
       d="m 104.0398,58.491924 c 0,-0.061 0.13379,-0.842064 0.29729,-1.735781 l 0.29728,-1.62494 h 0.95339 c 0.6916,0 1.03644,0.09182 1.25579,0.334143 0.70234,0.776073 0.0414,1.675716 -1.23113,1.675716 -0.85019,0 -1.02447,0.173498 -1.02447,1.019868 0,0.270929 -0.106,0.441835 -0.27407,0.441835 -0.15074,0 -0.27408,-0.04983 -0.27408,-0.110828 z m 2.33874,-1.93555 c 0.36658,-0.366581 0.25409,-0.86132 -0.22307,-0.981077 -0.75634,-0.189829 -1.08821,-0.02418 -1.21743,0.607612 -0.11922,0.582921 -0.11012,0.592715 0.55001,0.592715 0.36918,0 0.7699,-0.0986 0.89049,-0.21925 z m 1.13306,1.361213 c 0.0793,-0.37684 0.19421,-0.975642 0.25547,-1.330649 0.1067,-0.618336 0.14558,-0.64696 0.92465,-0.680872 0.44729,-0.0194 0.86534,0.04891 0.929,0.151889 0.0776,0.125578 0.19731,0.119598 0.36349,-0.01834 0.13626,-0.113087 0.43727,-0.178747 0.66892,-0.14591 0.3937,0.05581 0.41898,0.135757 0.38767,1.226014 -0.0184,0.641485 -0.11983,1.252657 -0.22534,1.358183 -0.34406,0.344044 -0.42033,-0.01408 -0.21094,-0.990499 0.14399,-0.671371 0.14782,-1.015454 0.0127,-1.150454 -0.35155,-0.351552 -0.81343,0.165616 -1.03387,1.157604 -0.1165,0.524305 -0.26039,1.001834 -0.31975,1.061194 -0.25753,0.257522 -0.32785,-0.192393 -0.16154,-1.033514 0.35311,-1.785879 -0.58614,-1.742518 -1.01804,0.04704 -0.28565,1.183557 -0.81606,1.506273 -0.57254,0.34835 z m 63.40147,0.574337 c 0,-0.061 0.13378,-0.842064 0.29728,-1.735781 0.24258,-1.325892 0.35723,-1.62494 0.62299,-1.62494 0.26179,0 0.36928,0.258372 0.54775,1.31643 0.21375,1.267235 0.23315,1.302025 0.51898,0.931032 0.1633,-0.211969 0.52302,-0.804364 0.79934,-1.316431 0.32851,-0.608767 0.62073,-0.931031 0.84424,-0.931031 0.33381,0 0.33377,0.03934 -0.003,1.677085 -0.18919,0.922394 -0.38411,1.71719 -0.43314,1.766225 -0.24225,0.242253 -0.29354,-0.238639 -0.12745,-1.194573 0.1014,-0.583599 0.16097,-1.085898 0.13236,-1.116223 -0.0287,-0.03029 -0.35331,0.483575 -0.72151,1.141964 -0.90109,1.611319 -1.03463,1.579665 -1.30112,-0.308431 -0.14816,-1.049752 -0.36018,-0.987429 -0.53169,0.156275 -0.15453,1.030431 -0.26858,1.34924 -0.48271,1.34924 -0.0897,0 -0.16316,-0.04983 -0.16316,-0.110828 z m 4.38514,-0.688526 c 0,-0.439657 -0.0514,-1.056318 -0.11415,-1.370356 -0.0892,-0.446167 -0.0513,-0.570975 0.1736,-0.570975 0.22219,0 0.30027,0.239462 0.34258,1.050603 l 0.0547,1.050604 0.49236,-1.050604 c 0.28944,-0.617631 0.60948,-1.050603 0.77655,-1.050603 0.22206,0 0.28809,0.229602 0.30208,1.050603 l 0.0179,1.050604 0.48005,-1.050604 c 0.54395,-1.19048 1.12265,-1.519959 0.64184,-0.365439 -0.98514,2.365559 -1.512,2.709124 -1.54106,1.00493 l -0.018,-1.050602 -0.48005,1.050602 c -0.61365,1.343008 -1.12854,1.457623 -1.12854,0.251237 z M 77.629347,54.317297 c -1.436523,-1.43652 0.94808,-3.907604 2.632397,-2.727861 0.620304,0.434474 0.215669,0.710626 -0.467093,0.318783 -0.467264,-0.268179 -0.632212,-0.281189 -1.101198,-0.08691 -0.990957,0.410461 -1.300397,1.802371 -0.515085,2.316935 0.549147,0.359805 1.480054,0.205696 1.744727,-0.288856 0.267148,-0.499163 0.235191,-0.545301 -0.377732,-0.545301 -0.326088,0 -0.511883,-0.07614 -0.446,-0.182706 0.06211,-0.100462 0.420446,-0.182719 0.796306,-0.182719 0.674631,0 0.682419,0.008 0.608023,0.645511 -0.05648,0.483721 -0.205275,0.712685 -0.593735,0.91357 -0.807671,0.417663 -1.757687,0.342503 -2.28061,-0.180421 z m 13.167124,-0.784843 c -0.06435,-0.67832 -0.159658,-1.459416 -0.211774,-1.735781 -0.06937,-0.367831 -0.02096,-0.502458 0.180688,-0.502458 0.260545,0 0.330873,0.321161 0.540159,2.466632 0.02115,0.216938 0.295507,-0.209881 0.675146,-1.050404 0.351722,-0.778704 0.738553,-1.415922 0.859609,-1.416029 0.234146,-1.86e-4 0.388787,0.669006 0.46438,2.009647 l 0.04638,0.822224 0.673284,-1.416041 c 0.414855,-0.872495 0.782588,-1.416029 0.95805,-1.416029 0.217344,0 0.08064,0.410939 -0.577489,1.735781 -0.604247,1.216406 -0.959252,1.735781 -1.186445,1.735781 -0.276316,0 -0.324191,-0.170865 -0.324191,-1.157192 0,-0.636448 -0.0514,-1.208646 -0.114346,-1.271528 -0.06288,-0.06285 -0.388563,0.457835 -0.72372,1.157179 -0.792914,1.654534 -1.105454,1.664022 -1.259715,0.03827 z m 29.870299,0.959257 c 0,-0.150747 0.12332,-0.274079 0.27406,-0.274079 0.15074,0 0.27408,0.123319 0.27408,0.274079 0,0.150734 -0.12334,0.274066 -0.27408,0.274066 -0.15074,0 -0.27406,-0.123319 -0.27406,-0.274066 z m 1.64442,0 c 0,-0.150747 0.12333,-0.274079 0.27407,-0.274079 0.15074,0 0.27408,0.123319 0.27408,0.274079 0,0.150734 -0.12334,0.274066 -0.27408,0.274066 -0.15074,0 -0.27407,-0.123319 -0.27407,-0.274066 z m 1.64442,0 c 0,-0.150747 0.12333,-0.274079 0.27407,-0.274079 0.15074,0 0.27408,0.123319 0.27408,0.274079 0,0.150734 -0.12334,0.274066 -0.27408,0.274066 -0.15074,0 -0.27407,-0.123319 -0.27407,-0.274066 z m 1.46172,0.163225 c 0,-0.061 0.13378,-0.842077 0.29728,-1.735781 l 0.29728,-1.62494 h 0.95339 c 0.69159,0 1.03645,0.09183 1.25579,0.33413 0.70235,0.776087 0.0413,1.675716 -1.23114,1.675716 -0.85018,0 -1.02447,0.173498 -1.02447,1.01988 0,0.27093 -0.10604,0.441836 -0.27407,0.441836 -0.15073,0 -0.27406,-0.04983 -0.27406,-0.110827 z m 2.33872,-1.935549 c 0.36659,-0.366582 0.2541,-0.86132 -0.22307,-0.981091 -0.75633,-0.189829 -1.08821,-0.02418 -1.21743,0.607625 -0.1192,0.582921 -0.11016,0.592715 0.55002,0.592715 0.36917,0 0.7699,-0.09874 0.89048,-0.219249 z m 1.86369,1.772324 c 0,-0.150747 0.12332,-0.274079 0.27407,-0.274079 0.15074,0 0.27407,0.123319 0.27407,0.274079 0,0.150734 -0.12331,0.274066 -0.27407,0.274066 -0.15074,0 -0.27407,-0.123319 -0.27407,-0.274066 z m 1.64442,0 c 0,-0.150747 0.12332,-0.274079 0.27407,-0.274079 0.15074,0 0.27408,0.123319 0.27408,0.274079 0,0.150734 -0.12332,0.274066 -0.27408,0.274066 -0.15074,0 -0.27407,-0.123319 -0.27407,-0.274066 z m 1.64442,0 c 0,-0.150747 0.12333,-0.274079 0.27408,-0.274079 0.15074,0 0.27407,0.123319 0.27407,0.274079 0,0.150734 -0.12332,0.274066 -0.27407,0.274066 -0.15075,0 -0.27408,-0.123319 -0.27408,-0.274066 z m 10.50948,-0.959257 c -0.0643,-0.67832 -0.15966,-1.459416 -0.21178,-1.735781 -0.0693,-0.367831 -0.021,-0.502458 0.18068,-0.502458 0.26056,0 0.33087,0.321161 0.54016,2.466632 0.0212,0.216938 0.29552,-0.209881 0.67516,-1.050404 0.35172,-0.778704 0.73855,-1.415922 0.8596,-1.416029 0.23416,-1.86e-4 0.38879,0.669006 0.46439,2.009647 l 0.0464,0.822224 0.6733,-1.416041 c 0.41485,-0.872495 0.78258,-1.416029 0.95804,-1.416029 0.21734,0 0.0806,0.410939 -0.57748,1.735781 -0.60426,1.216406 -0.95926,1.735781 -1.18644,1.735781 -0.27633,0 -0.3242,-0.170865 -0.3242,-1.157192 0,-0.636448 -0.0514,-1.208646 -0.11442,-1.271528 -0.0629,-0.06285 -0.38856,0.457835 -0.72372,1.157179 -0.7929,1.654534 -1.10546,1.664022 -1.25971,0.03827 z m 13.69181,0.784843 c -1.43652,-1.43652 0.94808,-3.907604 2.6324,-2.727861 0.62029,0.434474 0.21567,0.710626 -0.46709,0.318783 -0.46727,-0.268179 -0.63222,-0.281189 -1.1012,-0.08691 -0.99096,0.410461 -1.3004,1.802371 -0.51509,2.316935 0.54914,0.359805 1.48005,0.205696 1.74472,-0.288856 0.26716,-0.499163 0.2352,-0.545301 -0.37773,-0.545301 -0.32608,0 -0.51188,-0.07614 -0.44599,-0.182706 0.0621,-0.100462 0.42044,-0.182719 0.79629,-0.182719 0.67465,0 0.68244,0.008 0.60803,0.645511 -0.0565,0.483721 -0.20527,0.712685 -0.59373,0.91357 -0.80767,0.417663 -1.75769,0.342503 -2.28061,-0.180421 z M 99.334926,53.932151 c -0.527586,-0.24103 -0.959252,-0.518218 -0.959252,-0.61597 0,-0.165617 1.122693,-0.735462 1.993546,-1.011866 0.76025,-0.241297 0.37028,0.286848 -0.486157,0.658414 l -0.867888,0.376521 0.813788,0.322569 c 0.447577,0.177405 0.844987,0.416149 0.883117,0.530551 0.10248,0.307447 -0.3019,0.231037 -1.377154,-0.260219 z m 66.873264,0 c -0.52759,-0.24103 -0.95925,-0.518218 -0.95925,-0.61597 0,-0.165617 1.12269,-0.735462 1.99354,-1.011866 0.76026,-0.241297 0.37029,0.286848 -0.48615,0.658414 l -0.86789,0.376521 0.81378,0.322569 c 0.44759,0.177405 0.84499,0.416149 0.88313,0.530551 0.10245,0.307447 -0.3019,0.231037 -1.37716,-0.260219 z M 84.80917,53.35299 c 0.427094,-0.03854 1.125975,-0.03854 1.553068,0 0.427094,0.0384 0.07766,0.0699 -0.776533,0.0699 -0.854188,0 -1.203628,-0.03149 -0.776535,-0.0699 z m 30.3305,0 c 0.42709,-0.03854 1.12598,-0.03854 1.55307,0 0.42709,0.0384 0.0777,0.0699 -0.77654,0.0699 -0.85419,0 -1.20362,-0.03149 -0.77653,-0.0699 z m 22.29108,0 c 0.4271,-0.03854 1.12597,-0.03854 1.55307,0 0.4271,0.0384 0.0776,0.0699 -0.77653,0.0699 -0.85418,0 -1.20362,-0.03149 -0.77654,-0.0699 z m 16.26153,0 c 0.4271,-0.03854 1.12598,-0.03854 1.55308,0 0.42708,0.0384 0.0776,0.0699 -0.77654,0.0699 -0.85418,0 -1.20362,-0.03149 -0.77654,-0.0699 z m -49.2566,-0.737773 c 0.0335,-0.07734 0.47202,-0.857945 0.97448,-1.734572 1.11599,-1.947019 1.43628,-2.047548 1.73874,-0.545674 0.11637,0.577832 0.2779,1.358927 0.35896,1.735782 0.11594,0.539041 0.0921,0.685177 -0.11184,0.685177 -0.14257,0 -0.30854,-0.246665 -0.36884,-0.548144 -0.0994,-0.497223 -0.17619,-0.548146 -0.82614,-0.548146 -0.60467,0 -0.76511,0.08531 -1.02777,0.546989 -0.17119,0.300842 -0.42088,0.547507 -0.55487,0.548145 -0.134,5.44e-4 -0.21621,-0.06219 -0.18272,-0.139557 z m 2.34204,-1.82346 c -0.005,-0.973543 -0.29495,-1.077367 -0.71397,-0.256034 l -0.38694,0.758492 h 0.55185 c 0.48089,0 0.55149,-0.06459 0.54906,-0.502458 z m 1.37478,0.82221 c 0.12709,-0.628076 0.28522,-1.450287 0.35139,-1.827141 0.0692,-0.393797 0.22516,-0.685178 0.36687,-0.685178 0.19138,0 0.21095,0.153326 0.0875,0.685178 -0.30876,1.3296 -0.23711,1.463509 0.43469,0.812377 0.81632,-0.791208 1.28464,-0.760471 0.51481,0.03376 l -0.59877,0.617777 0.38393,0.752578 c 0.29776,0.583652 0.32657,0.752565 0.12832,0.752565 -0.14059,0 -0.35779,-0.246665 -0.48266,-0.548132 -0.12488,-0.30148 -0.33388,-0.548144 -0.46444,-0.548144 -0.13056,0 -0.29156,0.246664 -0.35778,0.548144 -0.0662,0.301467 -0.22715,0.548132 -0.35763,0.548132 -0.19385,0 -0.19498,-0.208832 -0.006,-1.14195 z m 65.2189,0.693484 c -1.43652,-1.43652 0.94808,-3.907618 2.63239,-2.727875 0.62031,0.434487 0.21568,0.710639 -0.46709,0.318795 -0.46726,-0.268178 -0.63221,-0.281202 -1.10119,-0.0869 -0.99095,0.410461 -1.30039,1.802371 -0.51509,2.316922 0.54915,0.359817 1.48006,0.205696 1.74473,-0.288842 0.26714,-0.499177 0.2352,-0.545302 -0.37773,-0.545302 -0.3261,0 -0.51188,-0.07614 -0.44599,-0.18272 0.0621,-0.100462 0.42043,-0.182706 0.79629,-0.182706 0.67464,0 0.68243,0.008 0.60802,0.645498 -0.0565,0.483735 -0.20527,0.712699 -0.59373,0.913571 -0.80766,0.417663 -1.75768,0.342516 -2.28061,-0.180408 z M 149.17012,51.84236 c 0,-0.381651 0.0892,-0.548145 0.29363,-0.548145 0.19267,0 0.25548,0.0994 0.18271,0.289015 -0.061,0.15896 -0.11097,0.405625 -0.11097,0.548146 0,0.142521 -0.0823,0.259129 -0.18271,0.259129 -0.10046,0 -0.18272,-0.246665 -0.18272,-0.548145 z m 12.24183,0 c 0,-0.381651 0.0892,-0.548145 0.29363,-0.548145 0.19266,0 0.25548,0.0994 0.1827,0.289015 -0.061,0.15896 -0.11096,0.405625 -0.11096,0.548146 0,0.142521 -0.0823,0.259129 -0.18271,0.259129 -0.10046,0 -0.18272,-0.246665 -0.18272,-0.548145 z M 122.12848,41.683466 c 0,-1.404866 0.0499,-1.717508 0.27406,-1.717508 0.18208,0 0.27408,0.182081 0.27408,0.542403 0,0.407431 0.0683,0.5162 0.27447,0.437079 0.92001,-0.353028 1.71726,0.686387 1.34517,1.75376 -0.20824,0.597366 -0.46619,0.720792 -1.48261,0.70943 l -0.68517,-0.008 z m 1.63525,1.125606 c 0.29361,-0.353785 0.173,-1.207822 -0.2039,-1.443736 -0.41919,-0.262372 -0.88321,0.146906 -0.88321,0.779022 0,0.815367 0.63821,1.205603 1.08711,0.664714 z m 1.11324,0.400055 c 0.004,-0.125578 0.33335,-0.598389 0.73123,-1.050603 l 0.72346,-0.822211 -0.73124,-0.05621 c -1.09656,-0.08425 -0.88043,-0.4006 0.27369,-0.4006 0.61519,0 1.00492,0.07881 1.00492,0.203038 0,0.111625 -0.33654,0.604993 -0.74786,1.096276 l -0.74787,0.893252 h 0.74787 c 0.41132,0 0.74786,0.08226 0.74786,0.18272 0,0.100463 -0.45221,0.182706 -1.00492,0.182706 -0.68629,0 -1.00246,-0.07243 -0.99714,-0.228393 z m 2.7387,-0.82221 c -0.12929,-0.577832 -0.27452,-1.153378 -0.3227,-1.278996 -0.0483,-0.125579 0.0354,-0.228393 0.18568,-0.228393 0.17104,0 0.32129,0.255833 0.40156,0.683782 0.19898,1.060677 0.33582,1.11722 0.55227,0.228234 0.29145,-1.197045 0.72068,-1.181059 1.01386,0.03774 0.1281,0.532784 0.25628,0.886488 0.28472,0.785987 0.0284,-0.100463 0.14153,-0.532146 0.25131,-0.959244 0.23483,-0.91361 0.65801,-1.083533 0.47985,-0.192673 -0.27145,1.35724 -0.50569,1.974127 -0.74958,1.974127 -0.23949,0 -0.63397,-1.009116 -0.64282,-1.644421 -0.006,-0.487004 -0.332,0.18547 -0.46209,0.955509 -0.0829,0.490486 -0.20865,0.688912 -0.43668,0.688912 -0.24085,0 -0.3786,-0.260565 -0.55538,-1.050604 z m 3.28307,0.776537 c 0,-0.150747 0.0823,-0.274079 0.1827,-0.274079 0.10047,0 0.18272,0.123319 0.18272,0.274079 0,0.150734 -0.0823,0.274065 -0.18272,0.274065 -0.10046,0 -0.1827,-0.123319 -0.1827,-0.274065 z m -11.98922,-9.364083 c 0.0746,-0.252379 0.66096,-3.275036 0.66096,-3.407246 0,-0.142494 1.58797,-0.04997 1.77263,0.103253 0.37088,0.307807 0.2885,1.499376 -0.14146,2.04598 -0.39204,0.498391 -1.04407,0.630016 -1.39289,0.281188 -0.14517,-0.145165 -0.23501,0.0053 -0.32667,0.548145 -0.0815,0.481834 -0.22273,0.748379 -0.39676,0.748379 -0.17165,0 -0.23583,-0.116674 -0.17581,-0.319752 z m 1.89307,-1.370356 c 0.23073,-0.291847 0.40253,-1.228951 0.28259,-1.541488 -0.14402,-0.375299 -0.73385,-0.28176 -1.04755,0.166109 -0.28986,0.413836 -0.3829,1.261681 -0.16263,1.481954 0.19976,0.199756 0.73393,0.138375 0.92759,-0.106575 z M 23.825926,32.06359 c -0.0013,-0.527588 -0.05208,-1.144249 -0.112661,-1.370356 -0.07993,-0.298278 -0.03161,-0.411112 0.176089,-0.411112 0.220332,0 0.298884,0.241973 0.34106,1.050603 l 0.0548,1.050603 0.492355,-1.050603 c 0.289445,-0.617631 0.60947,-1.050603 0.776534,-1.050603 0.222071,0 0.288095,0.229615 0.302093,1.050603 l 0.01791,1.050603 0.480046,-1.050603 c 0.543957,-1.19048 1.122651,-1.519946 0.641843,-0.365425 -0.97643,2.344628 -1.523146,2.717854 -1.523146,1.039826 0,-0.558643 -0.06167,-0.97737 -0.137036,-0.9305 -0.07537,0.04691 -0.299023,0.503933 -0.497007,1.015707 -0.245848,0.635492 -0.463075,0.9305 -0.685178,0.9305 -0.270184,0 -0.325626,-0.162295 -0.327699,-0.959243 z m 3.611094,0.761893 c -0.505054,-0.294171 -0.428651,-1.537501 0.128727,-2.094881 0.770117,-0.77012 1.926801,-0.487057 1.926801,0.471522 0,0.53568 -0.01129,0.541713 -1.018324,0.541713 -0.846686,0 -1.008367,0.05063 -0.959248,0.300165 0.09966,0.506405 0.640384,0.737642 1.081164,0.46238 0.463204,-0.289282 0.672213,-0.147956 0.351931,0.23796 -0.262712,0.31655 -1.035626,0.358051 -1.511054,0.08119 z m 1.50739,-1.812497 c -0.218793,-0.408826 -0.726998,-0.478924 -1.059741,-0.146176 -0.37838,0.378382 -0.243486,0.511602 0.518027,0.511602 0.680666,0 0.722265,-0.02804 0.541714,-0.365426 z m 1.035223,0.698281 c 0.269957,-1.427684 0.368172,-1.636422 0.596296,-1.267303 0.104954,0.169817 0.187436,0.181936 0.274919,0.04039 0.06874,-0.111227 0.357201,-0.202227 0.641028,-0.202227 0.373096,0 0.553684,-0.113884 0.65191,-0.411099 l 0.135864,-0.411112 0.08088,0.411112 c 0.04448,0.226107 0.157372,0.411099 0.250876,0.411099 0.0935,0 0.170006,0.08226 0.170006,0.182719 0,0.100463 -0.112741,0.182706 -0.250531,0.182706 -0.3135,0 -0.607384,1.87615 -0.309441,1.975456 0.370633,0.123585 0.19269,0.424986 -0.216561,0.366861 -0.444404,-0.06312 -0.49563,-0.370023 -0.276605,-1.657139 0.106868,-0.627997 0.0813,-0.685178 -0.306331,-0.685178 -0.567073,0 -0.784268,0.302477 -1.025757,1.428493 -0.114428,0.533582 -0.303754,0.946793 -0.433794,0.946793 -0.184251,0 -0.180773,-0.264285 0.01725,-1.311567 z m 4.385287,1.189762 c -0.067,-0.06697 -0.121804,-0.351884 -0.121804,-0.633073 0,-0.591944 0.428364,-0.889544 1.280382,-0.889544 0.447645,0 0.560173,-0.07017 0.512608,-0.319752 -0.06547,-0.343514 -0.879421,-0.566656 -0.879421,-0.241097 0,0.107506 -0.123331,0.195423 -0.27407,0.195423 -0.330383,0 -0.353224,-0.21319 -0.05482,-0.511601 0.313996,-0.313998 1.165169,-0.270437 1.513027,0.07748 0.283805,0.283793 0.278624,0.689536 -0.02245,1.75885 -0.04952,0.175862 -0.0022,0.319752 0.104995,0.319752 0.107265,0 0.195025,0.08226 0.195025,0.18272 0,0.100462 -0.164442,0.182705 -0.365427,0.182705 -0.200985,0 -0.365427,-0.08518 -0.365427,-0.189137 0,-0.130362 -0.109806,-0.130362 -0.353416,0 -0.401287,0.214758 -0.987983,0.248551 -1.1692,0.06738 z m 1.303359,-0.462885 c 0.356215,-0.356216 0.251444,-0.694307 -0.215157,-0.694307 -0.486679,0 -0.938618,0.430886 -0.758173,0.722852 0.159051,0.257348 0.703402,0.241388 0.97333,-0.02857 z M 121.8847,31.711267 c 0.26996,-1.427684 0.36817,-1.636422 0.5963,-1.267303 0.10495,0.169817 0.18744,0.181936 0.27492,0.04039 0.14089,-0.227981 0.65155,-0.277229 0.65155,-0.06285 0,0.07668 -0.18499,0.220538 -0.4111,0.319738 -0.30334,0.133086 -0.4765,0.455789 -0.66055,1.230971 -0.13719,0.577832 -0.35063,1.050603 -0.47428,1.050603 -0.17582,0 -0.17077,-0.285919 0.0231,-1.311566 z m 1.8099,1.024451 c -0.69304,-0.693031 -0.0287,-2.453596 0.92579,-2.453596 0.82366,0 1.16236,0.314144 1.16236,1.078071 0,1.3294 -1.2867,2.176979 -2.08815,1.375525 z m 1.46218,-0.721988 c 0.31026,-0.742558 0.10285,-1.366183 -0.45436,-1.366183 -0.60768,0 -1.06563,1.048716 -0.731,1.673976 0.30157,0.563493 0.88456,0.412108 1.18536,-0.307793 z m 0.80868,0.841307 c 0,-0.09236 0.37502,-0.606163 0.83339,-1.141963 l 0.83337,-0.974167 -0.65449,-0.05701 c -0.35997,-0.03136 -0.60681,-0.134082 -0.54852,-0.228392 0.14025,-0.226917 1.91153,-0.222133 1.91153,0.0053 0,0.09714 -0.38659,0.611027 -0.85909,1.141963 l -0.85912,0.965343 0.6764,0.05674 c 1.05175,0.08824 0.79561,0.400082 -0.32854,0.400082 -0.55271,0 -1.00493,-0.07548 -1.00493,-0.167796 z m 3.06046,-0.0295 c -0.50505,-0.294158 -0.42865,-1.537501 0.12877,-2.094881 0.77012,-0.770106 1.9268,-0.487057 1.9268,0.471523 0,0.53568 -0.0119,0.541712 -1.01832,0.541712 -0.84669,0 -1.00837,0.05063 -0.95926,0.300166 0.0997,0.506404 0.64038,0.737641 1.08117,0.462379 0.46321,-0.289281 0.67221,-0.147956 0.35194,0.23796 -0.26272,0.31655 -1.03563,0.358051 -1.51106,0.08119 z M 130.5931,31.1044 c -0.0608,-0.35219 -0.59253,-0.555998 -0.9168,-0.351445 -0.61034,0.384986 -0.49988,0.653099 0.2439,0.59201 0.38745,-0.03189 0.69025,-0.140075 0.6729,-0.240565 z m 0.85012,1.639996 c -0.28029,-0.337705 -0.0788,-0.607956 0.22595,-0.303141 0.3074,0.307381 1.18046,0.26798 1.3059,-0.05887 0.0727,-0.189283 -0.10578,-0.374674 -0.57183,-0.594109 -0.72236,-0.340138 -0.94257,-0.808272 -0.58365,-1.240738 0.28957,-0.348922 1.34734,-0.340417 1.64081,0.01328 0.29566,0.356243 0.0908,0.575466 -0.26327,0.281666 -0.30262,-0.251156 -1.05097,-0.199144 -1.14158,0.07934 -0.0327,0.100462 0.24765,0.347153 0.62302,0.548132 0.77298,0.413889 0.97533,0.957024 0.48904,1.312602 -0.44575,0.325932 -1.44055,0.304005 -1.72439,-0.03801 z m 2.55798,0 c -0.28027,-0.337705 -0.0788,-0.607956 0.22597,-0.303141 0.30739,0.307381 1.18044,0.26798 1.30589,-0.05887 0.0727,-0.189283 -0.10577,-0.374674 -0.57181,-0.594109 -0.72237,-0.340138 -0.9426,-0.808272 -0.58367,-1.240738 0.28958,-0.348922 1.34734,-0.340417 1.64081,0.01328 0.29566,0.356243 0.0908,0.575466 -0.26326,0.281666 -0.30263,-0.251156 -1.05098,-0.199144 -1.1416,0.07934 -0.0326,0.100462 0.24768,0.347153 0.62304,0.548132 0.77297,0.413889 0.97531,0.957024 0.48903,1.312602 -0.44574,0.325932 -1.44055,0.304005 -1.7244,-0.03801 z m 22.38774,-0.863472 c 0.12704,-0.628076 0.28523,-1.450286 0.35141,-1.82714 0.14016,-0.798278 0.63039,-0.969875 0.51447,-0.180075 -0.0679,0.462406 -0.0248,0.504863 0.5115,0.502458 0.33035,-0.0013 0.6643,0.120263 0.76611,0.279209 0.24687,0.385517 -0.16702,2.367511 -0.4944,2.367511 -0.18597,0 -0.2051,-0.158347 -0.0828,-0.685177 0.26842,-1.15589 0.21304,-1.690095 -0.17522,-1.690095 -0.48589,0 -0.71313,0.34318 -0.94589,1.428494 -0.1176,0.548636 -0.30255,0.946778 -0.43967,0.946778 -0.19309,0 -0.19411,-0.210067 -0.005,-1.141963 z m 2.93485,0.854848 c -0.75575,-0.755754 -0.0223,-2.453596 1.05996,-2.453596 0.76513,0 1.0282,0.283527 1.0282,1.108197 0,1.299978 -1.29755,2.135996 -2.08816,1.345399 z m 1.30973,-0.306702 c 0.31933,-0.405412 0.43958,-1.25521 0.21579,-1.524863 -0.30407,-0.366383 -0.85396,-0.31687 -1.07535,0.09687 -0.21213,0.396361 -0.2539,1.348071 -0.0674,1.534617 0.19978,0.199795 0.73398,0.138361 0.92691,-0.106575 z m 1.23684,-0.548146 c 0.12704,-0.628076 0.28524,-1.450286 0.3514,-1.82714 0.14018,-0.798278 0.6304,-0.969875 0.51448,-0.180075 -0.0679,0.462406 -0.0248,0.504863 0.5115,0.502458 0.33034,-0.0013 0.6643,0.120263 0.76609,0.279209 0.24688,0.385517 -0.16701,2.367511 -0.49438,2.367511 -0.18598,0 -0.20511,-0.158347 -0.0828,-0.685177 0.26842,-1.15589 0.21303,-1.690095 -0.17522,-1.690095 -0.48589,0 -0.71314,0.34318 -0.94589,1.428494 -0.1176,0.548636 -0.30256,0.946778 -0.43967,0.946778 -0.1931,0 -0.19411,-0.210067 -0.005,-1.141963 z m 2.96747,0.944613 c -0.50504,-0.294158 -0.42865,-1.537501 0.12877,-2.094881 0.77012,-0.770106 1.92681,-0.487057 1.92681,0.471523 0,0.53568 -0.0119,0.541712 -1.01833,0.541712 -0.84668,0 -1.00836,0.05063 -0.95924,0.300166 0.0997,0.506404 0.64038,0.737641 1.08116,0.462379 0.46319,-0.289281 0.67221,-0.147956 0.35193,0.23796 -0.26271,0.31655 -1.03562,0.358051 -1.51105,0.08119 z m 1.50739,-1.812496 c -0.2188,-0.408827 -0.72699,-0.478924 -1.05974,-0.146176 -0.37837,0.378382 -0.24347,0.511601 0.51803,0.511601 0.68066,0 0.72227,-0.02804 0.54171,-0.365425 z m 1.03523,0.69828 c 0.26995,-1.427683 0.36817,-1.636422 0.59629,-1.267301 0.10498,0.169815 0.18744,0.181935 0.27492,0.04039 0.1409,-0.22798 0.65156,-0.277229 0.65156,-0.06285 0,0.07668 -0.18499,0.220552 -0.4111,0.319752 -0.30334,0.133073 -0.47651,0.455775 -0.66056,1.230958 -0.13719,0.577831 -0.35062,1.050602 -0.47427,1.050602 -0.17582,0 -0.17077,-0.285918 0.0231,-1.311553 z m 2.02523,1.114216 c -0.50506,-0.294158 -0.42865,-1.537501 0.12877,-2.094881 0.7701,-0.770106 1.92679,-0.487057 1.92679,0.471523 0,0.53568 -0.0119,0.541712 -1.01833,0.541712 -0.84668,0 -1.00836,0.05063 -0.95925,0.300166 0.0997,0.506404 0.64038,0.737641 1.08117,0.462379 0.46321,-0.289281 0.67221,-0.147956 0.35193,0.23796 -0.26271,0.31655 -1.03563,0.358051 -1.51106,0.08119 z m 1.64878,-1.662414 c -0.13417,-0.402501 -0.66491,-0.620542 -0.99841,-0.410168 -0.60283,0.380256 -0.48171,0.625511 0.30888,0.625511 0.50323,0 0.73698,-0.07296 0.68953,-0.215343 z m 0.95512,1.174587 c 0.0792,-0.37684 0.19429,-0.976054 0.25565,-1.331566 0.10578,-0.61306 0.15109,-0.64797 0.87826,-0.676965 0.42169,-0.01675 0.86613,0.05196 0.98765,0.152806 0.14854,0.123319 0.25977,0.120528 0.33937,-0.008 0.1552,-0.251129 0.95454,-0.24709 1.11071,0.0053 0.067,0.108435 0.0654,0.72511 -0.004,1.370343 -0.094,0.877105 -0.19625,1.173164 -0.40549,1.173164 -0.27809,0 -0.26285,-0.406567 0.0667,-1.779753 0.0658,-0.274212 5.5e-4,-0.446898 -0.19752,-0.52291 -0.45393,-0.174188 -0.80934,0.242532 -0.93788,1.099732 -0.064,0.427377 -0.18698,0.891046 -0.27309,1.030378 -0.2919,0.472306 -0.41045,0.0039 -0.23006,-0.907976 0.35312,-1.78588 -0.58612,-1.742519 -1.01803,0.04704 -0.28566,1.183556 -0.81606,1.506272 -0.57254,0.348349 z m 4.84512,-0.548145 c -0.0643,-0.678321 -0.15966,-1.459417 -0.21178,-1.735781 -0.0693,-0.367831 -0.021,-0.502459 0.18068,-0.502459 0.26056,0 0.33087,0.321161 0.54016,2.466632 0.0212,0.216938 0.29552,-0.209881 0.67514,-1.050403 0.35173,-0.778704 0.73857,-1.415923 0.85962,-1.416029 0.23415,-2.13e-4 0.38879,0.669005 0.46438,2.009647 l 0.0464,0.822224 0.67328,-1.416042 c 0.37032,-0.77881 0.76087,-1.416029 0.8679,-1.416029 0.31829,0 0.23343,0.28176 -0.57697,1.915816 -0.53536,1.079466 -0.87099,1.555746 -1.09629,1.555746 -0.27752,0 -0.32471,-0.170998 -0.32471,-1.176858 0,-0.647265 -0.0616,-1.214825 -0.13703,-1.261216 -0.0754,-0.04638 -0.3837,0.481967 -0.68518,1.174148 -0.74213,1.703941 -1.11596,1.712911 -1.27557,0.03056 z m 4.42738,1.035972 c -0.50505,-0.294158 -0.42864,-1.537501 0.12876,-2.094881 0.77011,-0.770106 1.9268,-0.487057 1.9268,0.471523 0,0.534816 -0.0133,0.541712 -1.00494,0.541712 -1.07594,0 -1.10491,0.01993 -0.81578,0.560158 0.21241,0.39688 0.7238,0.463683 1.05028,0.137206 0.3048,-0.304815 0.50624,-0.03455 0.22596,0.303141 -0.2627,0.31655 -1.03563,0.358051 -1.51105,0.08119 z m 1.50739,-1.812496 c -0.21879,-0.408827 -0.727,-0.478924 -1.05974,-0.146176 -0.37838,0.378382 -0.24349,0.511601 0.51802,0.511601 0.68068,0 0.72226,-0.02804 0.54172,-0.365425 z m 0.9138,1.324669 c 0.0792,-0.37684 0.19727,-0.99192 0.26227,-1.366848 0.085,-0.490778 0.20558,-0.674547 0.4303,-0.656222 0.99956,0.08146 1.46205,-0.04731 1.59301,-0.443563 l 0.13586,-0.411111 0.0809,0.411111 c 0.0445,0.226108 0.15736,0.411099 0.25085,0.411099 0.0936,0 0.17002,0.08226 0.17002,0.18272 0,0.100462 -0.11269,0.182719 -0.25053,0.182719 -0.3135,0 -0.60738,1.876137 -0.30944,1.975456 0.3376,0.112555 0.21069,0.399816 -0.17662,0.399816 -0.49995,0 -0.57969,-0.291474 -0.37542,-1.372096 0.20078,-1.062138 0.0912,-1.256312 -0.53447,-0.946699 -0.34565,0.171052 -0.51457,0.47616 -0.70418,1.271913 -0.1425,0.598071 -0.34959,1.046882 -0.48303,1.046882 -0.17375,0 -0.19669,-0.175556 -0.0895,-0.685177 z m 13.05551,0.236698 c -1.43654,-1.43652 0.94808,-3.907604 2.6324,-2.727861 0.6203,0.434473 0.21566,0.710639 -0.4671,0.318782 -0.46726,-0.268179 -0.63221,-0.281189 -1.1012,-0.0869 -0.99096,0.41046 -1.30039,1.80237 -0.51509,2.316935 0.54915,0.359804 1.48006,0.205695 1.74474,-0.288856 0.26714,-0.499163 0.23518,-0.545301 -0.37774,-0.545301 -0.32608,0 -0.51188,-0.07614 -0.44601,-0.182706 0.17137,-0.277256 1.55748,-0.234213 1.47125,0.04571 -0.0387,0.125579 -0.11641,0.440401 -0.17261,0.69953 -0.20502,0.944799 -1.98482,1.234559 -2.76864,0.450739 z m 3.70826,0.251129 c -0.50506,-0.294158 -0.42865,-1.537501 0.12877,-2.094881 0.77012,-0.770106 1.92679,-0.487057 1.92679,0.471523 0,0.53568 -0.0119,0.541712 -1.01831,0.541712 -0.84669,0 -1.00838,0.05063 -0.95925,0.300166 0.0997,0.506404 0.64038,0.737641 1.08116,0.462379 0.4632,-0.289281 0.67221,-0.147956 0.35192,0.23796 -0.2627,0.31655 -1.03561,0.358051 -1.51104,0.08119 z m 1.50739,-1.726877 c 0,-0.588437 -1.03806,-0.534365 -1.23767,0.06445 -0.0463,0.138601 0.16154,0.215342 0.58293,0.215342 0.46614,0 0.65474,-0.08053 0.65474,-0.279806 z m 1.00655,0.782264 c 0.12704,-0.628076 0.28523,-1.450286 0.3514,-1.82714 0.0683,-0.389053 0.22561,-0.685178 0.36396,-0.685178 0.18866,0 0.20935,0.175278 0.0918,0.776537 -0.0834,0.427099 -0.24381,1.249309 -0.35622,1.827142 -0.12425,0.638866 -0.29798,1.050602 -0.44319,1.050602 -0.19577,0 -0.19717,-0.205775 -0.008,-1.141963 z m 1.39995,0.917398 c -0.34715,-0.347167 -0.25358,-1.502883 0.16475,-2.03471 0.39474,-0.501847 1.04456,-0.629525 1.39917,-0.274916 0.15354,0.153538 0.23843,0.03641 0.33093,-0.456785 0.0754,-0.40193 0.22929,-0.663305 0.3905,-0.663305 0.16627,0 0.23188,0.119864 0.17497,0.319752 -0.0501,0.175862 -0.18223,0.813081 -0.29359,1.416042 -0.11136,0.602948 -0.2374,1.263262 -0.28008,1.467363 -0.0622,0.297335 -0.2361,0.377984 -0.87515,0.405797 -0.43865,0.01913 -0.89383,-0.06153 -1.0115,-0.179238 z m 1.34819,-0.585831 c 0.16036,-0.244738 0.26503,-0.676407 0.23262,-0.959257 -0.0472,-0.411019 -0.15066,-0.514272 -0.51575,-0.514272 -0.35911,0 -0.5001,0.134056 -0.65943,0.62692 -0.11148,0.344814 -0.16351,0.776471 -0.11573,0.959257 0.12384,0.473741 0.71531,0.410793 1.05827,-0.112689 z M 64.279022,31.739611 c 0.06465,-0.404295 0.205305,-1.144288 0.312564,-1.644421 l 0.195019,-0.909345 h 0.894217 c 0.738601,0 0.94349,0.07522 1.177355,0.432122 0.208973,0.318928 0.237672,0.551706 0.109565,0.888654 -0.205372,0.540158 -0.528559,0.689072 -1.495506,0.689072 -0.583928,0 -0.715912,0.06459 -0.715912,0.350488 0,0.497064 -0.189737,0.928508 -0.408329,0.928508 -0.115452,0 -0.141731,-0.280073 -0.06896,-0.735078 z m 2.085184,-1.128594 c 0.309539,-0.309547 0.272184,-0.817627 -0.06975,-0.948839 -0.494303,-0.189683 -1.172575,-0.121857 -1.17519,0.117472 -0.0014,0.125578 -0.05208,0.413384 -0.112662,0.639492 -0.09852,0.367618 -0.04413,0.411111 0.514094,0.411111 0.343347,0 0.722932,-0.09873 0.843522,-0.219263 z m 0.797785,0.995787 c 0.09283,-0.477343 0.204616,-1.040331 0.248397,-1.25109 0.0586,-0.282132 0.225114,-0.387338 0.631263,-0.398886 0.303415,-0.0093 0.551665,0.061 0.551665,0.1548 0,0.09382 -0.120435,0.170494 -0.267643,0.170494 -0.342838,0 -0.570495,0.44032 -0.732126,1.416042 -0.0739,0.446088 -0.229,0.776525 -0.364495,0.776525 -0.183258,0 -0.198215,-0.193551 -0.06707,-0.867885 z m 1.650582,0.648634 c -0.35658,-0.356588 -0.267461,-1.559679 0.14617,-1.973316 0.405938,-0.405929 1.2696,-0.484453 1.607883,-0.146162 0.342377,0.342369 0.257876,1.326782 -0.159434,1.857306 -0.407426,0.517953 -1.207322,0.649471 -1.594619,0.262172 z m 1.389156,-0.74293 c 0.318656,-0.666919 0.130469,-1.230386 -0.410919,-1.230386 -0.500699,0 -0.934061,0.852522 -0.741606,1.458898 0.172787,0.544397 0.847111,0.410687 1.152525,-0.228512 z m 1.122349,0.676128 c -0.308729,-0.37199 -0.09646,-1.741323 0.317575,-2.048703 0.182528,-0.135505 0.562741,-0.213602 0.844918,-0.173537 0.44128,0.06259 0.527544,3.58e-4 0.616659,-0.44521 0.05698,-0.284937 0.203982,-0.51806 0.326656,-0.51806 0.173652,0 0.168991,0.293361 -0.02104,1.324682 -0.403025,2.187159 -0.336846,2.0655 -1.141041,2.097566 -0.440336,0.01754 -0.809534,-0.07508 -0.943721,-0.236738 z m 1.293778,-0.453835 c 0.317205,-0.592702 0.15278,-1.351871 -0.306983,-1.417397 -0.31023,-0.04425 -0.439418,0.08306 -0.610475,0.601352 -0.119333,0.361585 -0.17095,0.777375 -0.114695,0.923976 0.150521,0.392242 0.80086,0.324243 1.032153,-0.107905 z m 0.977378,0.472519 c -0.162072,-0.422354 0.184358,-2.162042 0.448007,-2.249787 0.190543,-0.06339 0.21529,0.109764 0.115372,0.807101 -0.06997,0.48832 -0.138017,0.970061 -0.151223,1.070562 -0.01316,0.100464 0.181543,0.182707 0.432774,0.182707 0.405357,0 0.484869,-0.118269 0.706227,-1.050603 0.137194,-0.577832 0.322191,-1.050603 0.411107,-1.050603 0.213199,0 0.204265,0.514232 -0.02774,1.595983 l -0.189395,0.883114 -0.822665,0.03575 c -0.568644,0.02471 -0.853481,-0.04452 -0.922468,-0.224287 z m 2.6071,-1.057301 c 0.359373,-1.950274 0.417702,-2.146893 0.63692,-2.146893 0.189574,0 0.124634,0.772418 -0.14593,1.735781 -0.08071,0.287421 0.03048,0.238651 0.520904,-0.228393 0.825376,-0.786038 1.318005,-0.783036 0.555771,0.0027 l -0.578837,0.597207 0.359078,0.544756 c 0.425599,0.645685 0.448771,0.818823 0.109578,0.818823 -0.138546,0 -0.354075,-0.246665 -0.478951,-0.548132 -0.124873,-0.301481 -0.30135,-0.548145 -0.392162,-0.548145 -0.09081,0 -0.214449,0.246664 -0.274743,0.548145 -0.06029,0.301467 -0.210001,0.548132 -0.332674,0.548132 -0.173652,0 -0.168991,-0.293362 0.02105,-1.32467 z m 2.326658,1.058563 c -0.05617,-0.146361 -0.02315,-0.636395 0.07338,-1.088967 0.120408,-0.564557 0.11484,-0.843061 -0.01775,-0.887259 -0.106296,-0.03548 -0.01341,-0.244286 0.206426,-0.464108 0.471474,-0.471482 0.582395,-0.495415 0.582395,-0.125578 0,0.150734 0.102775,0.276684 0.228392,0.279874 0.132621,0.0027 0.08536,0.114149 -0.112675,0.264126 -0.393301,0.297878 -0.665572,1.922633 -0.32219,1.922633 0.113566,0 0.206478,0.08226 0.206478,0.182706 0,0.286065 -0.730349,0.213934 -0.844442,-0.08345 z m 1.295262,-0.923763 c 0.221162,-1.176885 0.368141,-1.523627 0.563176,-1.328602 0.195232,0.195237 -0.31556,2.518472 -0.553718,2.518472 -0.187969,0 -0.1898,-0.230201 -0.0094,-1.18987 z m 1.230147,0.970619 c -0.35658,-0.356588 -0.267461,-1.559679 0.146171,-1.973316 0.405939,-0.405929 1.269599,-0.484453 1.607882,-0.146162 0.425354,0.425344 0.171122,1.81627 -0.401915,2.198905 -0.314003,0.209656 -1.109795,0.162919 -1.352138,-0.07947 z m 1.389158,-0.74293 c 0.318655,-0.666919 0.130467,-1.230386 -0.410922,-1.230386 -0.500697,0 -0.93406,0.852522 -0.741604,1.458898 0.172785,0.544397 0.847112,0.410687 1.152526,-0.228512 z m 0.787867,0.09435 c 0.297785,-1.651026 0.2711,-1.609539 1.055074,-1.640793 0.923506,-0.03681 1.196869,0.275035 1.036102,1.182002 -0.18312,1.033062 -0.291375,1.326675 -0.489138,1.326675 -0.111332,0 -0.132381,-0.416255 -0.05544,-1.096276 0.116569,-1.030365 0.101021,-1.09629 -0.258569,-1.09629 -0.454616,0 -0.672981,0.36504 -0.847084,1.416029 -0.07342,0.443231 -0.229254,0.776537 -0.363056,0.776537 -0.179821,0 -0.197961,-0.202147 -0.07788,-0.867884 z m 2.560949,0.622682 c -0.259931,-0.313202 -0.04235,-0.54566 0.268925,-0.287328 0.294321,0.244272 1.02443,0.149922 1.121486,-0.144914 0.03995,-0.121325 -0.220828,-0.343272 -0.579508,-0.49313 -0.495505,-0.207037 -0.652147,-0.37975 -0.652147,-0.71905 0,-0.67759 1.179327,-0.954699 1.649914,-0.387684 0.205342,0.247422 0.143033,0.266305 -0.525768,0.159358 -0.955568,-0.152793 -1.060993,0.274504 -0.16504,0.668953 1.03603,0.456107 0.817027,1.448997 -0.319606,1.448997 -0.327114,0 -0.68633,-0.110295 -0.798256,-0.245202 z m 2.372324,-0.622682 c 0.298919,-1.657311 0.281324,-1.628528 1.01214,-1.655995 0.37163,-0.01396 0.777211,0.05887 0.901291,0.161829 0.154406,0.128103 0.262968,0.126774 0.344008,-0.0039 0.171342,-0.277242 0.746827,-0.235117 1.002876,0.07335 0.169428,0.20414 0.17159,0.49782 0.0094,1.278995 -0.286347,1.379326 -0.602868,1.320696 -0.444139,-0.08226 0.102921,-0.909716 0.07718,-1.09629 -0.151269,-1.09629 -0.402866,0 -0.629098,0.354436 -0.807301,1.264764 -0.08699,0.444386 -0.271214,0.845652 -0.409383,0.891711 -0.183396,0.06112 -0.222959,-0.03362 -0.146548,-0.351194 0.369888,-1.536943 0.365973,-1.805281 -0.02633,-1.805281 -0.451423,0 -0.670011,0.366821 -0.843817,1.416042 -0.07342,0.443218 -0.229253,0.776524 -0.363055,0.776524 -0.179822,0 -0.197961,-0.202134 -0.07788,-0.867883 z m 3.71867,-0.321984 c 0.221162,-1.176899 0.368138,-1.523641 0.563173,-1.328603 0.195232,0.195237 -0.315558,2.518471 -0.553715,2.518471 -0.18797,0 -0.1898,-0.230199 -0.0094,-1.189868 z m 1.080013,0.923763 c -0.05615,-0.146362 -0.02314,-0.636396 0.07338,-1.088969 0.12041,-0.564555 0.114839,-0.84306 -0.01776,-0.887272 -0.106299,-0.03548 -0.01345,-0.244272 0.206428,-0.464107 0.471476,-0.471469 0.582395,-0.495402 0.582395,-0.125577 0,0.153683 0.163046,0.274078 0.37116,0.274078 0.20414,0 0.418488,-0.123319 0.476338,-0.274078 0.05786,-0.150734 0.178592,-0.274066 0.268332,-0.274066 0.08974,0 0.163163,0.123319 0.163163,0.274066 0,0.150746 0.102783,0.276697 0.228396,0.279886 0.13261,0.0027 0.08531,0.114149 -0.112677,0.264125 -0.393299,0.297879 -0.665569,1.922634 -0.322182,1.922634 0.113566,0 0.206472,0.08226 0.206472,0.182706 0,0.286052 -0.730344,0.213921 -0.844439,-0.08345 -0.05616,-0.146362 -0.02341,-0.635093 0.07275,-1.086071 0.181857,-0.852681 0.0036,-1.155969 -0.498109,-0.846077 -0.304959,0.188486 -0.498468,1.832842 -0.215685,1.832842 0.113566,0 0.206472,0.08226 0.206472,0.182706 0,0.286052 -0.730344,0.213921 -0.844439,-0.08345 z m 2.708124,0.04691 c -0.382149,-0.382156 -0.264753,-1.501435 0.203629,-1.941464 0.746572,-0.701376 1.769684,-0.43458 1.769684,0.461476 0,0.382489 -0.08208,0.420242 -0.913566,0.420242 -0.502469,0 -0.913574,0.07548 -0.913574,0.16777 0,0.676394 0.606122,0.98016 1.056697,0.529594 0.304806,-0.304816 0.506246,-0.03455 0.225965,0.303154 -0.275724,0.332218 -1.1208,0.36726 -1.428835,0.05927 z m 1.562207,-1.653565 C 97.191821,30.4764 96.92462,30.373585 96.63989,30.373585 c -0.284721,0 -0.551941,0.102721 -0.593815,0.228392 -0.05167,0.155026 0.139059,0.228394 0.593815,0.228394 0.454755,0 0.645502,-0.07335 0.593823,-0.228394 z m 0.959763,0.225656 c 0.300787,-1.600861 0.442009,-1.990924 0.646705,-1.786225 0.188791,0.188793 -0.504443,3.433384 -0.733565,3.433384 -0.168608,0 -0.147528,-0.399697 0.08683,-1.647159 z M 217.57594,31.73972 c 0.27872,-1.74301 0.51816,-2.553766 0.75421,-2.553766 0.28022,0 0.38173,0.275382 0.55564,1.507389 0.0674,0.477342 0.17484,0.867777 0.2388,0.867644 0.0639,-1.32e-4 0.40408,-0.534457 0.7558,-1.187397 0.42588,-0.790597 0.75043,-1.187237 0.97156,-1.187397 0.2287,-1.73e-4 0.30408,0.09927 0.24222,0.3195 -0.0494,0.175863 -0.19144,0.915856 -0.31564,1.644435 -0.13567,0.795806 -0.31466,1.324669 -0.44838,1.324669 -0.17425,0 -0.17278,-0.267621 0.006,-1.233323 0.12611,-0.678321 0.15283,-1.109977 0.0593,-0.959244 -0.0935,0.150747 -0.41396,0.705736 -0.71207,1.233323 -0.29813,0.527587 -0.61756,0.959244 -0.70988,0.959244 -0.0922,0 -0.22536,-0.390554 -0.29568,-0.867884 -0.14821,-1.005953 -0.4122,-1.79469 -0.43107,-1.287992 -0.006,0.170919 -0.1006,0.725907 -0.20945,1.233309 -0.2385,1.11209 -0.63577,1.273242 -0.46215,0.18749 z m 3.98541,0.515827 c -0.38214,-0.382156 -0.26475,-1.501435 0.20364,-1.941464 0.74657,-0.701376 1.76967,-0.43458 1.76967,0.461476 0,0.382489 -0.0822,0.420242 -0.91356,0.420242 -0.50248,0 -0.91357,0.07548 -0.91357,0.16777 0,0.676394 0.60611,0.98016 1.05668,0.529594 0.30482,-0.304816 0.50625,-0.03455 0.22598,0.303154 -0.27573,0.332218 -1.1208,0.36726 -1.42884,0.05927 z m 1.56221,-1.653565 c -0.0419,-0.125577 -0.3091,-0.228392 -0.59382,-0.228392 -0.28472,0 -0.55194,0.102721 -0.59382,0.228392 -0.0517,0.155026 0.13905,0.228394 0.59382,0.228394 0.45475,0 0.64548,-0.07335 0.59382,-0.228394 z m 0.88477,0.548146 c 0.36422,-1.941517 0.4263,-2.146894 0.64894,-2.146894 0.12731,0 0.1613,0.203796 0.0919,0.550604 -0.10272,0.51394 -0.0798,0.542989 0.34497,0.436374 0.73825,-0.185284 1.05097,0.218665 0.9079,1.172806 -0.15047,1.003349 -0.26478,1.311779 -0.48617,1.311779 -0.10245,0 -0.12199,-0.443975 -0.0483,-1.096277 0.11653,-1.030364 0.10098,-1.09629 -0.25857,-1.09629 -0.45463,0 -0.67299,0.365041 -0.84709,1.416029 -0.0742,0.447922 -0.22884,0.776538 -0.3654,0.776538 -0.19285,0 -0.19067,-0.245921 0.0119,-1.324669 z m 2.47075,0.456785 c 0.30492,-1.690613 0.26091,-1.627704 1.16266,-1.661803 l 0.82619,-0.03123 0.015,0.960718 0.015,0.96072 0.43824,-0.959244 c 0.24856,-0.544039 0.55843,-0.959243 0.7159,-0.959243 0.21117,0 0.28128,0.229601 0.29285,0.959243 l 0.0152,0.959244 0.45363,-0.959244 c 0.2495,-0.527588 0.53043,-0.959243 0.62427,-0.959243 0.24502,0 0.2278,0.06471 -0.36605,1.374355 -0.68464,1.509953 -1.10123,1.593193 -1.12296,0.224393 l -0.0152,-0.959257 -0.45365,0.959257 c -0.54394,1.150201 -0.97647,1.271142 -0.98011,0.274065 -0.004,-0.947988 -0.17756,-1.507388 -0.46916,-1.507388 -0.32227,0 -0.55209,0.457821 -0.71082,1.416029 -0.0735,0.443231 -0.22926,0.776537 -0.36306,0.776537 -0.17983,0 -0.19795,-0.202147 -0.0779,-0.867897 z m 4.94882,0.648634 c -0.38215,-0.382156 -0.26476,-1.501435 0.20363,-1.941464 0.74657,-0.701376 1.76968,-0.43458 1.76968,0.461476 0,0.382489 -0.0822,0.420242 -0.91357,0.420242 -0.50246,0 -0.91357,0.07548 -0.91357,0.16777 0,0.676394 0.60612,0.98016 1.05669,0.529594 0.30481,-0.304816 0.50624,-0.03455 0.22599,0.303154 -0.27574,0.332218 -1.12081,0.36726 -1.42885,0.05927 z m 1.5622,-1.653565 c -0.0419,-0.125577 -0.3091,-0.228392 -0.59382,-0.228392 -0.28472,0 -0.55195,0.102721 -0.59381,0.228392 -0.0517,0.155026 0.13906,0.228394 0.59381,0.228394 0.45477,0 0.64549,-0.07335 0.59382,-0.228394 z m 0.79753,1.004931 c 0.29954,-1.660767 0.27955,-1.628462 1.02525,-1.656488 0.37947,-0.01422 0.78006,-0.150706 0.89201,-0.303832 0.25851,-0.353519 0.43703,-0.355087 0.43703,-0.0039 0,0.150747 0.10272,0.276683 0.22839,0.279886 0.1344,0.0039 0.0905,0.110296 -0.10684,0.259847 -0.43322,0.328323 -0.64168,1.718373 -0.29024,1.935576 0.20031,0.123851 0.18504,0.179238 -0.0771,0.279833 -0.56411,0.216474 -0.73927,-0.171823 -0.53761,-1.191782 0.17738,-0.897106 0.1704,-0.923856 -0.2414,-0.923856 -0.49518,0 -0.71092,0.343805 -0.88855,1.416029 -0.0735,0.443231 -0.22925,0.776538 -0.36306,0.776538 -0.17982,0 -0.19795,-0.202148 -0.0779,-0.867898 z m -18.4751,-0.03349 c 0,-0.444481 -0.0858,-0.54901 -0.50246,-0.612131 l -0.50247,-0.07614 0.50247,-0.02738 c 0.40686,-0.02219 0.50246,-0.114283 0.50246,-0.48416 0,-0.251223 0.0823,-0.456785 0.18272,-0.456785 0.10047,0 0.18271,0.2001 0.18271,0.444652 0,0.344802 0.11282,0.461742 0.50247,0.52077 l 0.50246,0.07614 -0.50246,0.02738 c -0.43041,0.02339 -0.50247,0.106044 -0.50247,0.575507 0,0.30148 -0.0823,0.548144 -0.18271,0.548144 -0.10046,0 -0.18272,-0.241203 -0.18272,-0.535997 z m -55.545,-1.732699 c 0,-0.159105 0.13022,-0.289294 0.28929,-0.289294 0.15912,0 0.25675,0.09767 0.21698,0.216977 -0.11296,0.338782 -0.50627,0.39498 -0.50627,0.07229 z m 1.0304,0.13209 c -0.20576,-0.205763 -0.12531,-0.421358 0.15724,-0.421358 0.15073,0 0.27407,0.07734 0.27407,0.171929 0,0.230399 -0.28533,0.395405 -0.43131,0.249429 z M 80.195645,29.186031 c 0.06211,-0.100462 0.190294,-0.182719 0.284856,-0.182719 0.09456,0 0.171929,0.08226 0.171929,0.182719 0,0.100463 -0.128183,0.182707 -0.284854,0.182707 -0.156671,0 -0.234039,-0.08226 -0.171931,-0.182707 z m 12.150473,0 c 0,-0.100462 0.08226,-0.182719 0.18271,-0.182719 0.100495,0 0.182718,0.08226 0.182718,0.182719 0,0.100463 -0.08226,0.182707 -0.182718,0.182707 -0.100487,0 -0.18271,-0.08226 -0.18271,-0.182707 z M 46.579717,27.952709 c -0.06435,-0.678321 -0.159658,-1.45943 -0.211773,-1.735781 -0.06937,-0.367845 -0.02096,-0.502459 0.180687,-0.502459 0.260545,0 0.330872,0.321161 0.540158,2.466632 0.02115,0.216938 0.295507,-0.209894 0.675147,-1.050403 0.351723,-0.778704 0.738549,-1.415923 0.859612,-1.416029 0.234146,-2.26e-4 0.388784,0.669005 0.464381,2.009647 l 0.04637,0.82221 0.673287,-1.416028 c 0.414854,-0.872496 0.78259,-1.416029 0.958047,-1.416029 0.217346,0 0.08063,0.410926 -0.577488,1.735781 -0.604246,1.216407 -0.959252,1.735781 -1.186441,1.735781 -0.27632,0 -0.324191,-0.170879 -0.324191,-1.157192 0,-0.636447 -0.05145,-1.208645 -0.114349,-1.27154 -0.06289,-0.06286 -0.388566,0.457848 -0.72372,1.157192 -0.792915,1.654534 -1.105455,1.664022 -1.259716,0.03827 z m 4.16509,0.91357 c -0.06259,-0.175863 -0.145227,-0.378422 -0.183644,-0.450114 -0.163501,-0.305175 0.700594,-0.874555 1.32723,-0.874555 0.523214,0 0.640793,-0.06352 0.591956,-0.319752 -0.06547,-0.343513 -0.879422,-0.566656 -0.879422,-0.241097 0,0.107506 -0.123333,0.19541 -0.27407,0.19541 -0.150739,0 -0.274071,-0.06578 -0.274071,-0.146162 0,-0.319633 0.469223,-0.584689 1.03504,-0.584689 0.795995,0 1.039104,0.454207 0.802934,1.500146 -0.11213,0.496612 -0.113073,0.806092 -0.0025,0.844682 0.318021,0.111094 0.180595,0.395883 -0.190993,0.395883 -0.200985,0 -0.365427,-0.09874 -0.365427,-0.219263 0,-0.170534 -0.04873,-0.170534 -0.219256,0 -0.337984,0.337985 -1.23513,0.272073 -1.367719,-0.100462 z m 1.36772,-0.264936 c 0.356214,-0.356217 0.251444,-0.694308 -0.215158,-0.694308 -0.486678,0 -0.938619,0.430886 -0.758172,0.722852 0.159051,0.257348 0.7034,0.241388 0.97333,-0.02857 z m 1.315765,-0.100463 c 0.07925,-0.37684 0.194516,-0.977223 0.256143,-1.334184 0.102456,-0.593446 0.166663,-0.650547 0.750051,-0.667091 0.731514,-0.02073 0.823378,0.143198 0.226899,0.404879 -0.303336,0.133086 -0.476498,0.455776 -0.660551,1.23097 -0.142714,0.601087 -0.349389,1.050604 -0.483039,1.050604 -0.173746,0 -0.196678,-0.175556 -0.0895,-0.685178 z m 2.114034,0.398049 c -0.446657,-0.446646 -0.363477,-1.480266 0.161357,-2.005102 0.770116,-0.77012 1.926801,-0.487057 1.926801,0.471522 0,0.535667 -0.01129,0.541713 -1.018322,0.541713 -0.846687,0 -1.008368,0.05063 -0.959249,0.300165 0.09967,0.506391 0.640383,0.737642 1.081162,0.462366 0.463205,-0.289268 0.672216,-0.147942 0.351932,0.237974 -0.300655,0.362277 -1.177683,0.357359 -1.543681,-0.0093 z m 1.540016,-1.722732 c -0.218792,-0.408812 -0.726995,-0.47891 -1.05974,-0.146162 -0.378378,0.378382 -0.243486,0.511602 0.518027,0.511602 0.680666,0 0.722266,-0.02804 0.541713,-0.36544 z m 51.525308,1.735782 c 0,-0.150734 0.12333,-0.274066 0.27407,-0.274066 0.15074,0 0.27407,0.123319 0.27407,0.274066 0,0.150747 -0.12333,0.274079 -0.27407,0.274079 -0.15074,0 -0.27407,-0.123319 -0.27407,-0.274079 z m 1.64443,0 c 0,-0.150734 0.12333,-0.274066 0.27407,-0.274066 0.15074,0 0.27406,0.123319 0.27406,0.274066 0,0.150747 -0.12333,0.274079 -0.27406,0.274079 -0.15075,0 -0.27407,-0.123319 -0.27407,-0.274079 z m 1.64442,0 c 0,-0.150734 0.12333,-0.274066 0.27407,-0.274066 0.15074,0 0.27407,0.123319 0.27407,0.274066 0,0.150747 -0.12333,0.274079 -0.27407,0.274079 -0.15074,0 -0.27407,-0.123319 -0.27407,-0.274079 z m 30.87864,0 c 0,-0.150734 0.12332,-0.274066 0.27407,-0.274066 0.15074,0 0.27407,0.123319 0.27407,0.274066 0,0.150747 -0.12332,0.274079 -0.27407,0.274079 -0.15074,0 -0.27407,-0.123319 -0.27407,-0.274079 z m 1.64442,0 c 0,-0.150734 0.12332,-0.274066 0.27407,-0.274066 0.15075,0 0.27408,0.123319 0.27408,0.274066 0,0.150747 -0.12333,0.274079 -0.27408,0.274079 -0.15074,0 -0.27407,-0.123319 -0.27407,-0.274079 z m 1.64442,0 c 0,-0.150734 0.12332,-0.274066 0.27408,-0.274066 0.15074,0 0.27407,0.123319 0.27407,0.274066 0,0.150747 -0.12332,0.274079 -0.27407,0.274079 -0.15075,0 -0.27408,-0.123319 -0.27408,-0.274079 z M 59.411944,28.169115 c -0.47734,-0.248472 -0.867891,-0.489927 -0.867891,-0.536557 0,-0.13516 1.790653,-1.005382 2.049458,-0.995987 0.128953,0.0053 -0.156086,0.211808 -0.633424,0.46028 -0.477341,0.248485 -0.867893,0.489741 -0.867893,0.536132 0,0.04638 0.390552,0.28766 0.867893,0.536132 0.477338,0.248485 0.744558,0.451789 0.593819,0.451789 -0.150739,0 -0.664622,-0.203304 -1.141962,-0.451789 z m 150.190796,0 c -0.47735,-0.248472 -0.8679,-0.482698 -0.8679,-0.520478 0,-0.12518 1.81602,-1.02073 2.05217,-1.012066 0.12743,0.0053 -0.1588,0.211808 -0.63615,0.46028 -0.47733,0.248485 -0.86788,0.489741 -0.86788,0.536132 0,0.04638 0.39055,0.28766 0.86788,0.536132 0.47735,0.248485 0.74457,0.451789 0.59384,0.451789 -0.15075,0 -0.66462,-0.203304 -1.14196,-0.451789 z M 40.592417,27.773059 c 0.427094,-0.0384 1.125974,-0.0384 1.553068,0 0.427094,0.03854 0.07766,0.0699 -0.776534,0.0699 -0.854187,0 -1.203628,-0.03149 -0.776534,-0.0699 z m 62.670853,0 c 0.42709,-0.0384 1.12598,-0.0384 1.55307,0 0.4271,0.03854 0.0777,0.0699 -0.77654,0.0699 -0.85418,0 -1.20362,-0.03149 -0.77653,-0.0699 z m 47.5056,0 c 0.4271,-0.0384 1.12598,-0.0384 1.55306,0 0.4271,0.03854 0.0776,0.0699 -0.77653,0.0699 -0.8542,0 -1.20363,-0.03149 -0.77653,-0.0699 z m 40.19704,0 c 0.4271,-0.0384 1.12598,-0.0384 1.55308,0 0.42708,0.03854 0.0776,0.0699 -0.77654,0.0699 -0.85418,0 -1.20362,-0.03149 -0.77654,-0.0699 z M 24.2769,26.727505 c -1.436522,-1.43652 0.948082,-3.907604 2.632399,-2.727861 0.620304,0.434473 0.215668,0.710639 -0.467094,0.318783 -0.467264,-0.268166 -0.632212,-0.281189 -1.101199,-0.08691 -0.990955,0.410474 -1.300396,1.802384 -0.515084,2.316936 0.549146,0.359817 1.480054,0.205695 1.744726,-0.288843 0.267148,-0.499176 0.235193,-0.545301 -0.377731,-0.545301 -0.326088,0 -0.511882,-0.07614 -0.446002,-0.18272 0.171351,-0.277256 1.557466,-0.234213 1.471238,0.04571 -0.0387,0.125578 -0.116368,0.4404 -0.172599,0.69953 -0.205021,0.944812 -1.984832,1.234558 -2.768654,0.450738 z m 3.708261,0.251143 c -0.505053,-0.294171 -0.428651,-1.537501 0.128727,-2.094881 0.770118,-0.77012 1.9268,-0.487057 1.9268,0.471509 0,0.53568 -0.01129,0.541713 -1.018322,0.541713 -0.846686,0 -1.008366,0.05063 -0.959248,0.300165 0.09967,0.506406 0.640383,0.737655 1.081163,0.46238 0.463204,-0.289282 0.672214,-0.147943 0.351931,0.237973 -0.26271,0.31655 -1.035625,0.358051 -1.511054,0.08119 z m 1.507389,-1.72689 c 0,-0.588437 -1.038057,-0.534366 -1.237669,0.06445 -0.04621,0.138601 0.161538,0.215343 0.582945,0.215343 0.466132,0 0.654724,-0.08053 0.654724,-0.279806 z m 1.006558,0.782277 c 0.127094,-0.628089 0.285223,-1.4503 0.351397,-1.82714 0.06832,-0.389053 0.225614,-0.685179 0.363956,-0.685179 0.188649,0 0.209366,0.175279 0.09178,0.776538 -0.08352,0.427085 -0.243825,1.249296 -0.35623,1.827128 -0.124276,0.638867 -0.297966,1.050603 -0.443182,1.050603 -0.195774,0 -0.197167,-0.205762 -0.0077,-1.14195 z m 1.399953,0.917384 c -0.347168,-0.347166 -0.253591,-1.502883 0.164744,-2.034709 0.394746,-0.501834 1.044561,-0.629512 1.399163,-0.274917 0.153542,0.153538 0.238431,0.03641 0.330948,-0.456785 0.0754,-0.401929 0.229272,-0.663292 0.390484,-0.663292 0.166271,0 0.231889,0.119865 0.174963,0.319753 -0.0501,0.175862 -0.182206,0.813068 -0.293575,1.416029 -0.111372,0.602947 -0.23741,1.263262 -0.28009,1.467363 -0.06217,0.297347 -0.236087,0.377983 -0.875147,0.405796 -0.43865,0.01913 -0.893821,-0.06153 -1.01149,-0.179238 z m 1.348187,-0.585831 c 0.160357,-0.244738 0.265029,-0.676394 0.232605,-0.959243 -0.04712,-0.411033 -0.150659,-0.514273 -0.515739,-0.514273 -0.359114,0 -0.500111,0.134044 -0.659415,0.626921 -0.111452,0.344801 -0.163524,0.776471 -0.115731,0.959243 0.12389,0.473742 0.715303,0.410793 1.058275,-0.112688 z m 36.826223,0.399299 c 0.806274,-1.54877 1.680464,-2.877744 1.89297,-2.877744 0.240892,0 0.477463,0.796549 0.758453,2.553765 0.131532,0.822543 -0.20691,1.056676 -0.402272,0.278292 -0.09786,-0.389876 -0.219362,-0.456772 -0.82961,-0.456772 -0.58532,0 -0.752704,0.08279 -0.923089,0.456772 -0.114469,0.251236 -0.321152,0.456785 -0.459297,0.456785 -0.202075,0 -0.20934,-0.08039 -0.03715,-0.411098 z m 1.991408,-1.405252 c 0,-0.754293 -0.298535,-0.852855 -0.631717,-0.20854 -0.369171,0.713895 -0.361663,0.745894 0.174932,0.745894 0.383693,0 0.456785,-0.08598 0.456785,-0.537354 z m 1.117284,0.948466 c 0.292686,-1.622747 0.298308,-1.633179 0.889046,-1.649976 0.303414,-0.0093 0.551664,0.061 0.551664,0.1548 0,0.09382 -0.120435,0.170494 -0.267643,0.170494 -0.342837,0 -0.570494,0.440334 -0.732126,1.416042 -0.07342,0.443217 -0.229254,0.776524 -0.363056,0.776524 -0.179821,0 -0.19796,-0.202134 -0.07788,-0.867884 z m 1.562718,-0.47931 c 0.355084,-1.927855 0.413835,-2.124368 0.635168,-2.124368 0.126601,0 0.161554,0.202585 0.09359,0.542431 -0.102629,0.513143 -0.0811,0.536955 0.398501,0.441037 0.716754,-0.143344 1.017919,0.280684 0.88789,1.250121 -0.125418,0.935111 -0.487204,1.228418 -1.490323,1.208286 l -0.764658,-0.01529 0.239838,-1.302158 z m 1.524903,0.334742 c 0.257119,-0.779075 0.136224,-1.180114 -0.35575,-1.180114 -0.416618,0 -0.74302,0.503069 -0.74302,1.145179 0,0.936851 0.792792,0.962048 1.09877,0.03495 z m 1.13034,0.793202 c -0.354338,-0.354343 -0.264523,-1.490393 0.153289,-1.938859 0.406736,-0.436573 1.249692,-0.531693 1.600764,-0.180619 0.120595,0.120528 0.219257,0.408361 0.219257,0.639491 0,0.382488 -0.08209,0.420241 -0.913571,0.420241 -0.796463,0 -0.913569,0.04757 -0.913569,0.371166 0,0.472971 0.490895,0.666069 0.955564,0.375871 0.442508,-0.276351 0.63988,-0.123452 0.327099,0.253481 -0.275726,0.332231 -1.120804,0.36726 -1.428833,0.05927 z m 1.562203,-1.653564 c -0.04187,-0.125578 -0.309092,-0.228393 -0.593821,-0.228393 -0.284727,0 -0.551946,0.102722 -0.593819,0.228393 -0.05168,0.155039 0.139065,0.228393 0.593819,0.228393 0.454755,0 0.645498,-0.07335 0.593821,-0.228393 z m 0.861927,0.682945 c 0.221162,-1.176885 0.368141,-1.523627 0.563176,-1.328589 0.195232,0.195225 -0.31556,2.518458 -0.553718,2.518458 -0.187969,0 -0.1898,-0.2302 -0.0094,-1.189869 z m 1.080018,0.923763 c -0.05616,-0.146361 -0.02314,-0.636394 0.07338,-1.088967 0.120409,-0.564557 0.114827,-0.843061 -0.01777,-0.887259 -0.106296,-0.03548 -0.01341,-0.244286 0.206428,-0.464108 0.471475,-0.471482 0.582394,-0.495402 0.582394,-0.125578 0,0.150734 0.102774,0.276684 0.228392,0.279873 0.132608,0.0027 0.08537,0.11415 -0.112674,0.264126 -0.3933,0.29788 -0.665572,1.922633 -0.322188,1.922633 0.113564,0 0.206475,0.08226 0.206475,0.18272 0,0.286052 -0.730348,0.213921 -0.844441,-0.08345 z m 1.233826,0.02087 c -0.259932,-0.313201 -0.04235,-0.545673 0.268924,-0.287328 0.29432,0.24426 1.024432,0.149923 1.121487,-0.144913 0.03995,-0.121326 -0.220827,-0.343273 -0.579508,-0.49313 -0.495506,-0.207037 -0.652146,-0.37975 -0.652146,-0.71905 0,-0.468931 0.297656,-0.668368 0.997497,-0.668368 0.472805,0 0.953299,0.450155 0.668426,0.626216 -0.09843,0.06086 -0.230607,0.02697 -0.293727,-0.07508 -0.168775,-0.273082 -1.006769,-0.226971 -1.006769,0.05541 0,0.132621 0.267156,0.358702 0.593679,0.502459 1.036029,0.456107 0.817026,1.449012 -0.319608,1.449012 -0.327114,0 -0.68633,-0.110297 -0.798255,-0.245203 z m 2.459566,-1.079466 c 0.363733,-1.938912 0.426355,-2.146893 0.646427,-2.146893 0.189573,0 0.124635,0.772418 -0.145929,1.735781 -0.08072,0.287408 0.03048,0.238652 0.520904,-0.228392 0.825374,-0.786039 1.318004,-0.783036 0.55577,0.0039 l -0.578836,0.597206 0.359077,0.544757 c 0.425599,0.64567 0.44877,0.818822 0.109578,0.818822 -0.138546,0 -0.354076,-0.246665 -0.47895,-0.548145 -0.124874,-0.301468 -0.301351,-0.548132 -0.392163,-0.548132 -0.09081,0 -0.214447,0.246664 -0.274743,0.548132 -0.06029,0.30148 -0.213131,0.548145 -0.339632,0.548145 -0.183164,0 -0.179396,-0.269774 0.0185,-1.32467 z m 2.297422,0.456785 c 0.09283,-0.477343 0.204618,-1.040331 0.248397,-1.251103 0.0586,-0.282118 0.225115,-0.387339 0.631265,-0.398886 0.303414,-0.0093 0.551663,0.061 0.551663,0.154813 0,0.09382 -0.120435,0.170494 -0.267641,0.170494 -0.342838,0 -0.570495,0.440321 -0.732126,1.416028 -0.0739,0.446102 -0.229001,0.776538 -0.364496,0.776538 -0.183258,0 -0.198216,-0.193549 -0.06707,-0.867884 z m 1.431325,0.502459 c -0.308595,-0.576623 0.06925,-1.073819 0.919337,-1.209762 0.436366,-0.06976 0.725089,-0.215768 0.725089,-0.366662 0,-0.307473 -0.57818,-0.330303 -0.873981,-0.03455 -0.304809,0.304816 -0.506245,0.03455 -0.225967,-0.303155 0.12712,-0.153165 0.464827,-0.278478 0.750464,-0.278478 0.697754,0 0.951884,0.497555 0.738712,1.446314 -0.115066,0.51212 -0.10219,0.752193 0.04312,0.804444 0.113924,0.04093 0.141736,0.144302 0.06179,0.229628 -0.07994,0.08532 -0.302236,0.05714 -0.493992,-0.06259 -0.220302,-0.137591 -0.389365,-0.151851 -0.45926,-0.03881 -0.196522,0.317971 -0.981439,0.194506 -1.185326,-0.186467 z m 1.444828,-0.411113 c 0.12393,-0.330728 0.08508,-0.422779 -0.19866,-0.470804 -0.410382,-0.0695 -0.880739,0.267102 -0.880739,0.630216 0,0.437104 0.906011,0.303301 1.079399,-0.159412 z m 1.121125,0.548145 c 0.0044,-0.125578 0.07925,-0.59807 0.166404,-1.049899 0.111306,-0.577087 0.09535,-0.866634 -0.05363,-0.973156 -0.157331,-0.112556 -0.150071,-0.176594 0.02812,-0.248259 0.132116,-0.05316 0.315073,-0.293535 0.406583,-0.534233 0.16294,-0.42856 0.906278,-0.637644 0.906278,-0.254903 0,0.100462 -0.123325,0.182706 -0.274064,0.182706 -0.150739,0 -0.27407,0.123319 -0.27407,0.274079 0,0.153671 0.163051,0.274066 0.371157,0.274066 0.20414,0 0.418488,-0.123319 0.476338,-0.274066 0.05786,-0.150747 0.178592,-0.274079 0.268332,-0.274079 0.08974,0 0.163163,0.123319 0.163163,0.274079 0,0.150734 0.102774,0.276684 0.228396,0.279874 0.13261,0.0027 0.0854,0.114149 -0.112677,0.264125 -0.393299,0.29788 -0.665569,1.922634 -0.322182,1.922634 0.113566,0 0.206472,0.08226 0.206472,0.182706 0,0.286065 -0.730344,0.213934 -0.844439,-0.08345 -0.05616,-0.146362 -0.02243,-0.639678 0.0749,-1.096277 0.169101,-0.792869 0.158462,-0.83017 -0.236824,-0.83017 -0.352154,0 -0.432803,0.126109 -0.540691,0.845572 -0.06974,0.465064 -0.170094,0.958393 -0.223007,1.096276 -0.120302,0.313507 -0.425297,0.329931 -0.414582,0.02233 z m 22.648566,0.117605 c 0,-0.06099 0.13377,-0.842064 0.29728,-1.73578 l 0.29729,-1.624941 h 0.95339 c 0.69158,0 1.03642,0.09182 1.25578,0.334144 0.70234,0.776072 0.0414,1.675716 -1.23113,1.675716 -0.8502,0 -1.02447,0.173497 -1.02447,1.019867 0,0.270942 -0.10601,0.441835 -0.27408,0.441835 -0.15074,0 -0.27406,-0.04983 -0.27406,-0.110828 z m 2.33873,-1.93555 c 0.36658,-0.366581 0.25409,-0.861319 -0.22308,-0.981077 -0.75633,-0.189829 -1.08821,-0.02418 -1.21743,0.607625 -0.1192,0.582909 -0.11012,0.592716 0.55002,0.592716 0.36917,0 0.7699,-0.09874 0.89049,-0.219264 z m 1.07177,0.734838 c 0.26995,-1.427696 0.36817,-1.636421 0.5963,-1.267316 0.10495,0.16983 0.18742,0.181937 0.27491,0.04039 0.1409,-0.227981 0.65156,-0.277215 0.65156,-0.06286 0,0.07668 -0.185,0.220553 -0.4111,0.319753 -0.30334,0.133072 -0.4765,0.455775 -0.66056,1.230971 -0.13719,0.577831 -0.35062,1.050603 -0.47427,1.050603 -0.17582,0 -0.17077,-0.285933 0.0231,-1.311567 z m 1.80989,1.024438 c -0.69303,-0.693031 -0.0287,-2.453583 0.92579,-2.453583 0.82366,0 1.16237,0.314132 1.16237,1.078071 0,1.329387 -1.2867,2.176966 -2.08816,1.375512 z m 1.46218,-0.721974 c 0.31026,-0.742572 0.10287,-1.366183 -0.45436,-1.366183 -0.60767,0 -1.06562,1.048702 -0.73099,1.673962 0.30157,0.563493 0.88456,0.412122 1.18535,-0.307779 z m 1.20535,0.784524 c -0.34716,-0.347167 -0.25359,-1.502884 0.16474,-2.03471 0.39475,-0.501834 1.04456,-0.629512 1.39917,-0.274916 0.15354,0.153537 0.23843,0.03641 0.33095,-0.456786 0.0754,-0.401929 0.22926,-0.663291 0.39048,-0.663291 0.16627,0 0.23188,0.119863 0.17497,0.319752 -0.0502,0.175862 -0.18221,0.813068 -0.29359,1.416029 -0.11136,0.602947 -0.2374,1.263262 -0.28008,1.467363 -0.0622,0.297348 -0.23609,0.377983 -0.87515,0.405797 -0.43865,0.01913 -0.89382,-0.06153 -1.01149,-0.179238 z m 1.34819,-0.585831 c 0.38538,-0.588171 0.28473,-1.449304 -0.1797,-1.537501 -0.48292,-0.09169 -0.83429,0.450127 -0.83429,1.286543 0,0.571414 0.0646,0.695929 0.36121,0.695929 0.19867,0 0.49242,-0.200234 0.65278,-0.444971 z m 1.36654,0.542656 c -0.31795,-0.3831 0.009,-2.472958 0.38703,-2.472958 0.11885,0 0.1395,0.424375 0.0578,1.187636 -0.11856,1.107174 -0.10249,1.187637 0.23715,1.187637 0.50749,0 0.73191,-0.33146 0.96719,-1.428494 0.19566,-0.912321 0.53818,-1.301719 0.53818,-0.611824 0,0.869572 -0.43134,2.405743 -0.6755,2.405743 -0.15467,0 -0.20751,-0.09236 -0.13063,-0.228392 0.10312,-0.182707 0.0797,-0.182707 -0.11707,0 -0.33286,0.308962 -0.99197,0.288444 -1.26402,-0.03933 z m 2.56618,-0.508784 c 0.0834,-0.427098 0.24384,-1.249309 0.35624,-1.827141 0.12585,-0.646986 0.29729,-1.050603 0.44625,-1.050603 0.18597,0 0.2051,0.158347 0.0828,0.685177 -0.30876,1.3296 -0.23712,1.46351 0.43469,0.812377 0.81633,-0.791207 1.28465,-0.760471 0.5148,0.03376 l -0.59877,0.617778 0.38394,0.752577 c 0.29776,0.583652 0.32657,0.752565 0.12837,0.752565 -0.14059,0 -0.35779,-0.246665 -0.48266,-0.548145 -0.12492,-0.301467 -0.33388,-0.548131 -0.46444,-0.548131 -0.1305,0 -0.29157,0.246664 -0.35777,0.548131 -0.0662,0.30148 -0.22722,0.548145 -0.3578,0.548145 -0.18131,0 -0.20152,-0.183477 -0.0856,-0.776537 z m 2.62749,0.546391 c -0.0486,-0.126508 -0.0133,-0.633977 0.0793,-1.127572 0.0922,-0.493595 0.12571,-1.006697 0.0745,-1.140222 -0.0513,-0.133524 -0.0119,-0.242771 0.0878,-0.242771 0.0995,0 0.2421,-0.185005 0.31681,-0.411112 l 0.13587,-0.411098 0.0809,0.411098 c 0.0445,0.226107 0.15737,0.411112 0.25087,0.411112 0.0935,0 0.17001,0.08226 0.17001,0.182706 0,0.100463 -0.11268,0.18272 -0.25053,0.18272 -0.31351,0 -0.60737,1.876136 -0.30944,1.975455 0.10698,0.03561 0.19455,0.140223 0.19455,0.23234 0,0.254904 -0.7299,0.199862 -0.83064,-0.06272 z m 1.379,-0.455045 c 0.0792,-0.37684 0.19757,-0.993501 0.26293,-1.370342 0.0683,-0.394249 0.22344,-0.685178 0.36519,-0.685178 0.18851,0 0.21253,0.160926 0.10233,0.685178 -0.0792,0.376841 -0.19758,0.993502 -0.26293,1.370342 -0.0685,0.394249 -0.22346,0.685178 -0.36521,0.685178 -0.18851,0 -0.21252,-0.160926 -0.10231,-0.685178 z m 1.38317,0.398063 c -0.69303,-0.693031 -0.0287,-2.453583 0.9258,-2.453583 0.82366,0 1.16236,0.314132 1.16236,1.078071 0,1.329387 -1.28669,2.176966 -2.08816,1.375512 z m 1.30855,-0.306703 c 0.53189,-0.679823 0.34594,-1.781454 -0.30072,-1.781454 -0.60768,0 -1.06562,1.048702 -0.731,1.673962 0.20619,0.385265 0.76854,0.443855 1.03172,0.107505 z m 1.2667,-0.717735 c 0.25353,-1.340828 0.41153,-1.702838 0.56063,-1.284484 0.0629,0.176487 0.14622,0.184473 0.33034,0.03163 0.3232,-0.268219 1.00494,-0.158907 1.22779,0.196872 0.24248,0.387139 -0.17438,2.367512 -0.49835,2.367512 -0.18597,0 -0.20511,-0.158335 -0.0828,-0.685179 0.26842,-1.155889 0.21303,-1.690094 -0.17522,-1.690094 -0.48589,0 -0.71314,0.34318 -0.9459,1.428494 -0.11441,0.53358 -0.30374,0.946779 -0.43379,0.946779 -0.18425,0 -0.18078,-0.264286 0.0173,-1.311554 z m 2.61538,1.033075 c -0.28028,-0.337718 -0.0788,-0.607957 0.22597,-0.303154 0.30738,0.30738 1.18045,0.26798 1.3059,-0.05887 0.0727,-0.189284 -0.10578,-0.374674 -0.57183,-0.59411 -0.72237,-0.340137 -0.94258,-0.808258 -0.58365,-1.240738 0.28957,-0.348908 1.34733,-0.340403 1.64079,0.01329 0.29566,0.356243 0.0908,0.575479 -0.26326,0.281666 -0.30261,-0.251156 -1.05097,-0.199131 -1.14158,0.07934 -0.0326,0.100462 0.24766,0.347153 0.62303,0.548144 0.77296,0.413876 0.97532,0.957012 0.48902,1.31259 -0.44572,0.325945 -1.44053,0.304005 -1.72439,-0.03801 z m 25.13024,-0.954832 c -0.0643,-0.678334 -0.15965,-1.459429 -0.21177,-1.735781 -0.0693,-0.367843 -0.021,-0.502471 0.18069,-0.502471 0.26055,0 0.33088,0.321161 0.54016,2.466646 0.0212,0.216937 0.29551,-0.209896 0.67515,-1.050405 0.35172,-0.778717 0.73855,-1.415922 0.85961,-1.416041 0.23415,-2.13e-4 0.38879,0.669004 0.46437,2.00966 l 0.0464,0.822211 0.67617,-1.416029 c 0.3719,-0.778823 0.76245,-1.416042 0.8679,-1.416042 0.31518,0 0.22888,0.285109 -0.57986,1.915816 -0.53536,1.079466 -0.87099,1.555746 -1.09628,1.555746 -0.27753,0 -0.32471,-0.170999 -0.32471,-1.176845 0,-0.64728 -0.0616,-1.214825 -0.13703,-1.261229 -0.0753,-0.04638 -0.3837,0.481967 -0.68518,1.174161 -0.74213,1.703942 -1.11596,1.712911 -1.27559,0.03056 z m 4.1651,0.913571 c -0.0626,-0.175862 -0.14524,-0.378421 -0.18365,-0.450127 -0.16139,-0.301228 0.69992,-0.874555 1.31384,-0.874555 0.45246,0 0.63949,-0.08186 0.63949,-0.279807 0,-0.393505 -0.52889,-0.550975 -0.95557,-0.28451 -0.44249,0.276351 -0.63986,0.123451 -0.32709,-0.253482 0.30391,-0.366183 1.17911,-0.355937 1.55323,0.01821 0.28381,0.283806 0.27863,0.689536 -0.0224,1.758864 -0.0496,0.175862 -0.003,0.319751 0.10498,0.319751 0.10724,0 0.19502,0.08226 0.19502,0.182707 0,0.100462 -0.16444,0.182719 -0.36542,0.182719 -0.20099,0 -0.36542,-0.08518 -0.36542,-0.189151 0,-0.130362 -0.10977,-0.130362 -0.35342,0 -0.53636,0.287049 -1.1064,0.226692 -1.23356,-0.130628 z m 1.36771,-0.264937 c 0.35622,-0.356216 0.25145,-0.69432 -0.21516,-0.69432 -0.48666,0 -0.93862,0.430886 -0.75817,0.722852 0.15905,0.257348 0.70341,0.241388 0.97333,-0.02857 z m 1.23458,0.264937 c 0.037,-0.175862 0.15522,-0.776298 0.26242,-1.334303 0.1908,-0.993143 0.20828,-1.014924 0.82894,-1.032517 0.72789,-0.0206 0.81838,0.143756 0.22293,0.404999 -0.30335,0.133072 -0.4765,0.455775 -0.66056,1.230957 -0.14429,0.607758 -0.34888,1.050603 -0.48536,1.050603 -0.12969,0 -0.20552,-0.143877 -0.16837,-0.319739 z m 2.19523,0.03269 c -0.44666,-0.446658 -0.36348,-1.480279 0.16135,-2.005116 0.77012,-0.770106 1.92681,-0.487057 1.92681,0.471523 0,0.53568 -0.0119,0.541713 -1.01832,0.541713 -0.84669,0 -1.00838,0.05063 -0.95925,0.300164 0.0997,0.506405 0.64038,0.737642 1.08116,0.46238 0.4632,-0.289281 0.67221,-0.147956 0.35193,0.237961 -0.30066,0.362276 -1.17768,0.357373 -1.54368,-0.0093 z m 1.5998,-1.631371 c -0.0608,-0.352191 -0.59251,-0.555999 -0.9168,-0.351446 -0.61033,0.384986 -0.49988,0.653099 0.24391,0.592011 0.38745,-0.03177 0.69026,-0.140076 0.67289,-0.240565 z m 1.58486,1.233309 c 0.0792,-0.376841 0.19431,-0.976054 0.25566,-1.331566 0.10591,-0.613538 0.15067,-0.647956 0.88129,-0.677084 0.42337,-0.01687 0.82776,0.06312 0.89865,0.177855 0.095,0.153817 0.20184,0.148009 0.40684,-0.02206 0.15285,-0.126907 0.46745,-0.203796 0.6991,-0.170959 0.39369,0.05581 0.41898,0.135744 0.38767,1.226014 -0.0185,0.641471 -0.11986,1.252644 -0.22535,1.358169 -0.34405,0.344058 -0.42032,-0.01408 -0.21093,-0.990485 0.14398,-0.671371 0.14782,-1.015468 0.0133,-1.150467 -0.35156,-0.351553 -0.81344,0.165616 -1.03387,1.157616 -0.11655,0.524292 -0.2604,1.001821 -0.31975,1.061182 -0.25813,0.258119 -0.31781,-0.188793 -0.15299,-1.145499 0.14272,-0.828363 0.12824,-1.049712 -0.0737,-1.127211 -0.42714,-0.163903 -0.76584,0.295168 -0.98042,1.328841 -0.12372,0.596316 -0.30195,0.990884 -0.4474,0.990884 -0.1831,0 -0.20675,-0.166108 -0.0975,-0.685178 z m 4.0197,0 c 0.0792,-0.376841 0.19759,-0.993502 0.26294,-1.370356 0.069,-0.397943 0.22307,-0.685177 0.36751,-0.685177 0.14077,0 0.21939,0.138774 0.18116,0.319752 -0.0372,0.175862 -0.15859,0.792524 -0.26992,1.370356 -0.12478,0.647517 -0.29512,1.050603 -0.44408,1.050603 -0.1831,0 -0.20677,-0.166108 -0.0977,-0.685178 z m 1.179,0.455044 c -0.0486,-0.126508 -0.0133,-0.633989 0.0793,-1.127584 0.0922,-0.493582 0.12572,-1.006684 0.0745,-1.140209 -0.0513,-0.133525 -0.0119,-0.242784 0.0878,-0.242784 0.0995,0 0.24209,-0.184992 0.31682,-0.411099 l 0.13586,-0.411112 0.0808,0.411112 c 0.0445,0.226107 0.15737,0.411099 0.25087,0.411099 0.0936,0 0.17002,0.08226 0.17002,0.182719 0,0.100462 -0.1127,0.182719 -0.25054,0.182719 -0.3135,0 -0.60738,1.876136 -0.30944,1.975457 0.10697,0.03561 0.19453,0.140208 0.19453,0.232325 0,0.254917 -0.72989,0.199862 -0.83063,-0.06272 z m 16.72696,-0.455044 c 0.0792,-0.376841 0.19431,-0.976054 0.25567,-1.331566 0.1059,-0.613538 0.15067,-0.647956 0.88129,-0.677084 0.42336,-0.01687 0.82775,0.06312 0.89865,0.177855 0.095,0.153817 0.20184,0.148009 0.40682,-0.02206 0.15287,-0.126907 0.46746,-0.203796 0.69911,-0.170959 0.3937,0.05581 0.41898,0.135744 0.38768,1.226014 -0.0185,0.641471 -0.11987,1.252644 -0.22536,1.358169 -0.34404,0.344058 -0.42032,-0.01408 -0.21093,-0.990485 0.14399,-0.671371 0.14783,-1.015468 0.0133,-1.150467 -0.35155,-0.351553 -0.81344,0.165616 -1.03387,1.157616 -0.11654,0.524292 -0.26039,1.001821 -0.31975,1.061182 -0.25812,0.258119 -0.3178,-0.188793 -0.15298,-1.145499 0.14272,-0.828363 0.12823,-1.049712 -0.0737,-1.127211 -0.42713,-0.163903 -0.76584,0.295168 -0.98042,1.328841 -0.12385,0.596316 -0.30194,0.990884 -0.44739,0.990884 -0.18311,0 -0.20676,-0.166108 -0.0977,-0.685178 z m 4.33924,0.487828 c -0.50506,-0.294158 -0.42865,-1.537501 0.12877,-2.094882 0.77012,-0.770106 1.9268,-0.487057 1.9268,0.471523 0,0.53568 -0.0119,0.541713 -1.01832,0.541713 -0.84669,0 -1.00838,0.05063 -0.95926,0.300164 0.0997,0.506405 0.64039,0.737642 1.08116,0.46238 0.46321,-0.289281 0.67223,-0.147956 0.35194,0.237961 -0.26272,0.316549 -1.03563,0.35805 -1.51105,0.08119 z m 1.50739,-1.726879 c 0,-0.588436 -1.03806,-0.534364 -1.23767,0.06445 -0.0462,0.138601 0.16154,0.215343 0.58294,0.215343 0.46613,0 0.65473,-0.08053 0.65473,-0.279806 z m 1.00655,0.782266 c 0.12704,-0.628077 0.28522,-1.450287 0.35139,-1.827141 0.14018,-0.798278 0.6304,-0.969875 0.51449,-0.180075 -0.0679,0.462407 -0.0248,0.504864 0.51149,0.502459 0.33034,-0.0013 0.6643,0.120262 0.76609,0.279208 0.24689,0.385518 -0.167,2.367512 -0.49438,2.367512 -0.18597,0 -0.2051,-0.158348 -0.0828,-0.685178 0.2684,-1.155889 0.21302,-1.690095 -0.17526,-1.690095 -0.48587,0 -0.71311,0.343181 -0.94587,1.428494 -0.11761,0.54865 -0.30256,0.946779 -0.43967,0.946779 -0.1931,0 -0.1941,-0.210068 -0.005,-1.141963 z m 2.95209,-0.169604 c 0.26997,-1.427682 0.36816,-1.636421 0.5963,-1.267301 0.10498,0.169815 0.18743,0.181935 0.27491,0.04039 0.14091,-0.227981 0.65156,-0.277229 0.65156,-0.06286 0,0.07668 -0.18499,0.220552 -0.4111,0.319752 -0.30334,0.133073 -0.47651,0.455776 -0.66056,1.230958 -0.13719,0.577831 -0.35062,1.050603 -0.47428,1.050603 -0.17581,0 -0.17076,-0.285919 0.0231,-1.311554 z m 8.91437,0.863087 c -1.03772,-1.03774 -0.0747,-2.840363 1.51738,-2.840363 0.6773,0 1.30925,0.444719 1.03204,0.726293 -0.14591,0.148249 -0.26246,0.12704 -0.43347,-0.07906 -0.63332,-0.763103 -2.01629,0.105778 -2.01629,1.266863 0,0.796551 0.61344,1.185417 1.42163,0.901185 0.68128,-0.239594 0.77546,-0.80544 0.13406,-0.80544 -0.27411,0 -0.43239,-0.07854 -0.36805,-0.182706 0.1666,-0.269561 1.37088,-0.229349 1.36786,0.04571 -0.006,0.57936 -0.24853,1.023069 -0.66107,1.211038 -0.74403,0.338994 -1.50444,0.246147 -1.99409,-0.243488 z m 3.24234,0.22923 c -0.38214,-0.382156 -0.26474,-1.501435 0.20364,-1.941464 0.74657,-0.701376 1.76968,-0.434579 1.76968,0.461477 0,0.382474 -0.0822,0.420241 -0.91357,0.420241 -0.79647,0 -0.91357,0.04757 -0.91357,0.371166 0,0.472971 0.4909,0.666055 0.95555,0.37587 0.44251,-0.276351 0.63989,-0.123451 0.32712,0.253469 -0.27573,0.332231 -1.12081,0.367273 -1.42885,0.05927 z m 1.48746,-1.709124 c -0.12864,-0.33526 -0.99997,-0.291807 -1.11403,0.05554 -0.0505,0.153923 0.13662,0.228392 0.57401,0.228392 0.51185,0 0.62595,-0.06007 0.54002,-0.283952 z m 0.95953,0.603705 c 0.35937,-1.915723 0.4268,-2.146894 0.62611,-2.146894 0.22791,0 0.23227,-0.0683 -0.11814,1.846636 -0.18755,1.025103 -0.38204,1.624927 -0.52691,1.624927 -0.18263,0 -0.17878,-0.271142 0.0188,-1.324669 z m 1.16081,1.038616 c -0.30873,-0.372003 -0.0965,-1.741335 0.31758,-2.048702 0.18253,-0.135506 0.56273,-0.213603 0.8449,-0.173537 0.44129,0.06259 0.52755,3.58e-4 0.61666,-0.445225 0.057,-0.284922 0.20399,-0.518046 0.32665,-0.518046 0.17366,0 0.169,0.293362 -0.021,1.324683 -0.403,2.187158 -0.33683,2.0655 -1.14104,2.097566 -0.44033,0.01754 -0.80953,-0.07508 -0.9437,-0.236739 z m 1.29377,-0.453835 c 0.3172,-0.592701 0.15278,-1.35187 -0.30699,-1.417397 -0.31023,-0.04425 -0.4394,0.08306 -0.61047,0.601353 -0.11933,0.361585 -0.17095,0.777375 -0.11468,0.923976 0.15052,0.392241 0.80086,0.324243 1.03214,-0.107905 z m 1.27417,0.03189 c 0,-0.389411 -0.0514,-0.964957 -0.11416,-1.278996 -0.0904,-0.452107 -0.0524,-0.570987 0.18273,-0.570987 0.23445,0 0.30005,0.201749 0.31186,0.959257 l 0.015,0.959243 0.43823,-0.959243 c 0.58101,-1.271701 0.99353,-1.286199 0.99353,-0.03495 0,1.065168 0.19429,1.061341 0.54814,-0.01063 0.24117,-0.730718 0.48075,-1.041859 0.6624,-0.860216 0.0494,0.04943 -0.15639,0.633259 -0.45747,1.297294 -0.69512,1.533023 -1.112,1.624276 -1.13346,0.248099 l -0.015,-0.959256 -0.43823,0.959256 c -0.5349,1.170748 -0.99354,1.286717 -0.99354,0.251223 z m 3.32538,0.488759 c -0.35432,-0.354343 -0.26451,-1.490393 0.1533,-1.938859 0.40673,-0.436573 1.2497,-0.531694 1.60076,-0.18062 0.12052,0.120528 0.21926,0.408361 0.21926,0.639491 0,0.382489 -0.0822,0.420241 -0.91358,0.420241 -0.79646,0 -0.91356,0.04757 -0.91356,0.371167 0,0.47297 0.4909,0.666069 0.95556,0.37587 0.44252,-0.276352 0.63987,-0.123452 0.3271,0.253482 -0.27572,0.33223 -1.12079,0.367259 -1.42884,0.05927 z m 1.5622,-1.653565 c -0.0419,-0.125578 -0.30909,-0.228392 -0.59381,-0.228392 -0.28473,0 -0.55195,0.102721 -0.59382,0.228392 -0.0517,0.155039 0.13906,0.228393 0.59382,0.228393 0.45475,0 0.64549,-0.07335 0.59381,-0.228393 z m 0.80694,1.004931 c 0.0929,-0.477343 0.20439,-1.039495 0.24791,-1.249243 0.0621,-0.299009 0.22786,-0.38694 0.76793,-0.407245 0.37948,-0.01422 0.78006,-0.150707 0.89202,-0.303819 0.25851,-0.353519 0.43703,-0.3551 0.43703,-0.0039 0,0.150733 0.10272,0.276683 0.22839,0.279872 0.1344,0.0039 0.0905,0.110297 -0.10684,0.259861 -0.43322,0.32831 -0.64168,1.71836 -0.29025,1.935563 0.20032,0.123851 0.18505,0.179238 -0.0771,0.279833 -0.56411,0.216472 -0.73929,-0.171823 -0.53761,-1.191769 0.17739,-0.897119 0.1704,-0.923869 -0.2414,-0.923869 -0.49518,0 -0.71093,0.343805 -0.88855,1.416029 -0.0739,0.446101 -0.229,0.776538 -0.36449,0.776538 -0.18327,0 -0.19821,-0.193551 -0.0671,-0.867885 z m 3.62389,0.502458 c -0.3086,-0.576609 0.0692,-1.073819 0.91933,-1.209749 0.43637,-0.06976 0.72509,-0.215781 0.72509,-0.366661 0,-0.288006 -0.65288,-0.342011 -0.82221,-0.06804 -0.16582,0.268285 -0.45679,0.222546 -0.45679,-0.07176 0,-0.488492 1.25889,-0.6668 1.62166,-0.229695 0.13882,0.167265 0.15403,0.517833 0.0473,1.089353 -0.1091,0.584064 -0.095,0.8652 0.0461,0.915975 0.11189,0.04027 0.1381,0.143094 0.0582,0.228407 -0.08,0.08532 -0.30224,0.05714 -0.49399,-0.06259 -0.22031,-0.137577 -0.38936,-0.151849 -0.45928,-0.03881 -0.1965,0.317985 -0.98142,0.19452 -1.18531,-0.186453 z m 1.44482,-0.411099 c 0.12399,-0.330728 0.085,-0.422779 -0.19866,-0.470818 -0.41039,-0.0695 -0.88074,0.267103 -0.88074,0.63023 0,0.43709 0.90601,0.303287 1.0794,-0.159412 z M 35.339395,25.896989 c 0,-0.100463 0.287772,-0.182706 0.639497,-0.182706 0.351724,0 0.639498,0.08226 0.639498,0.182706 0,0.100462 -0.287774,0.182719 -0.639498,0.182719 -0.351725,0 -0.639497,-0.08226 -0.639497,-0.182719 z m 105.243185,0 c 0,-0.100463 0.28776,-0.182706 0.63949,-0.182706 0.35172,0 0.6395,0.08226 0.6395,0.182706 0,0.100462 -0.28778,0.182719 -0.6395,0.182719 -0.35173,0 -0.63949,-0.08226 -0.63949,-0.182719 z M 80.287003,23.887143 c 0,-0.100463 0.08221,-0.18272 0.182714,-0.18272 0.100489,0 0.182713,0.08226 0.182713,0.18272 0,0.100462 -0.08221,0.182719 -0.182713,0.182719 -0.100489,0 -0.182714,-0.08226 -0.182714,-0.182719 z m 50.977157,-0.18272 c 0,-0.100463 0.12824,-0.182707 0.28485,-0.182707 0.15668,0 0.23405,0.08226 0.17194,0.182707 -0.0621,0.100463 -0.1903,0.18272 -0.28485,0.18272 -0.0946,0 -0.17194,-0.08226 -0.17194,-0.18272 z m 47.87104,0 c 0,-0.100463 0.12823,-0.182707 0.28485,-0.182707 0.15666,0 0.23403,0.08226 0.17193,0.182707 -0.0621,0.100463 -0.19029,0.18272 -0.28486,0.18272 -0.0946,0 -0.17192,-0.08226 -0.17192,-0.18272 z"
       id="path872" />
  </g>
</svg>
