{
  "unversionedId": "GCS-Konzept/Dritter Teil/Reparaturprozess",
  "id": "GCS-Konzept/Dritter Teil/Reparaturprozess",
  "isDocsHomePage": false,
  "title": "Reparaturprozess",
  "description": "Während über den Konfigurationsprozess (Plankonfigurationen eingeschlossen) neue Konfigurationen entstehen, werden im Reparaturprozess bestehende Konfigurationen verändert. Der Reparaturprozess ist die ständige Möglichkeit bestehende Konfigurationen an die realen, sich stetig verändernden Umstände anzupassen.",
  "source": "@site/docs/GCS-Konzept/Dritter Teil/Reparaturprozess.md",
  "sourceDirName": "GCS-Konzept/Dritter Teil",
  "slug": "/reparaturprozess",
  "permalink": "/docs/reparaturprozess",
  "editUrl": "https://gitlab.com/commoningsystem/docusaurus/edit/master/website/docs/GCS-Konzept/Dritter Teil/Reparaturprozess.md",
  "version": "current",
  "sidebarPosition": 9,
  "frontMatter": {
    "sidebar_position": 9,
    "slug": "/reparaturprozess"
  },
  "sidebar": "tutorialSidebar",
  "previous": {
    "title": "Festsetzen einer Konfiguration",
    "permalink": "/docs/festsetzen-von-konfigurationen"
  },
  "next": {
    "title": "Übersicht und Anhang",
    "permalink": "/docs/essays-uebersicht-und-anhang"
  }
}