{
  "unversionedId": "GCS-Konzept/Dritter Teil/Konfigurationsprozess",
  "id": "GCS-Konzept/Dritter Teil/Konfigurationsprozess",
  "isDocsHomePage": false,
  "title": "Konfigurationsprozess",
  "description": "Der Konfigurationsprozess ist ein halb-automatisches Werkzeug und Kernelement der Software. Nachdem ein Bedürfnis vermittelt wurde (→[Bedürfnisvermittlung]) werden automatisch sämtliche Möglichkeiten durchgespielt, wie dieses Bedürfnis in der jeweiligen lokalen Umgebung befriedigt werden kann. Diese Möglichkeiten werden aufsteigend anhand ihrer Gesamtdauer sortiert und schließlich werden die Beteiligten im Umkreis anhand ihrer persönlichen Fähigkeiten, Interessen und Verfügungsmöglichkeiten angefragt, ob sie sich bestimmten Tätigkeiten zuordnen wollen oder ob sie über bestimmte Mittel oder bestimmtes Wissen verfügen, das sie für aktuell anstehende Prozess bereitstellen würden.",
  "source": "@site/docs/GCS-Konzept/Dritter Teil/Konfigurationsprozess.md",
  "sourceDirName": "GCS-Konzept/Dritter Teil",
  "slug": "/konfigurationsprozess",
  "permalink": "/docs/konfigurationsprozess",
  "editUrl": "https://gitlab.com/commoningsystem/docusaurus/edit/master/website/docs/GCS-Konzept/Dritter Teil/Konfigurationsprozess.md",
  "version": "current",
  "sidebarPosition": 4,
  "frontMatter": {
    "sidebar_position": 4,
    "slug": "/konfigurationsprozess"
  },
  "sidebar": "tutorialSidebar",
  "previous": {
    "title": "Momente des Gesamtaufwandes",
    "permalink": "/docs/momente-des-gesamtaufwandes"
  },
  "next": {
    "title": "Plankonfigurationen",
    "permalink": "/docs/plankonfigurationen"
  }
}