{
  "unversionedId": "GCS-Konzept/Zweiter Teil/Individueller Musterspeicher",
  "id": "GCS-Konzept/Zweiter Teil/Individueller Musterspeicher",
  "isDocsHomePage": false,
  "title": "Individueller Musterspeicher",
  "description": "Der ‚individuelle Musterspeicher‘ ist selbst keine Funktion, sondern weist auf zwei verschiedene Ebenen der Softwarevermittlung hin: Einmal den (Tätigkeits-)Musterspeicher einer konkreten Person innerhalb der Software, was nachfolgend als ‚Bibliothek‘ bezeichnet wird. Und einmal auf das persönliche Wissen einer konkreten Person außerhalb der Software, das heißt die Erfahrungen zur Ausführung von Tätigkeiten, die sie im Laufe ihres Lebens gemacht hat und welche sie einerseits allgemein verfügbar machen und anderseits als Fähigkeit innerhalb der Software angeben kann.",
  "source": "@site/docs/GCS-Konzept/Zweiter Teil/Individueller Musterspeicher.md",
  "sourceDirName": "GCS-Konzept/Zweiter Teil",
  "slug": "/individueller-musterspeicher",
  "permalink": "/docs/individueller-musterspeicher",
  "editUrl": "https://gitlab.com/commoningsystem/docusaurus/edit/master/website/docs/GCS-Konzept/Zweiter Teil/Individueller Musterspeicher.md",
  "version": "current",
  "sidebarPosition": 4,
  "frontMatter": {
    "sidebar_position": 4,
    "slug": "/individueller-musterspeicher"
  },
  "sidebar": "tutorialSidebar",
  "previous": {
    "title": "Konfigurationen",
    "permalink": "/docs/konfigurationen"
  },
  "next": {
    "title": "Bibliothek",
    "permalink": "/docs/bibliothek"
  }
}