{
  "unversionedId": "Theorie-Essays/Übersicht und Anhang",
  "id": "Theorie-Essays/Übersicht und Anhang",
  "isDocsHomePage": false,
  "title": "Übersicht und Anhang",
  "description": "Der Essay 'der Ausdehnungsdrang moderner Commons', in welchem sich an 'Kapitalismus aufheben' von Meretz/Sutterlütti abgearbeitet wird, war der Auslöser für das Projekt 'Global Commoning System'. Der 'Timeless Way of Re-Production' entstand im ersten Projektjahr und ist eine Interpretation von Christopher Alexanders 'The Timeless Way of Building'. Im Timeless Way wurde die Grundstruktur für die Systematik der Software gelegt.",
  "source": "@site/docs/Theorie-Essays/Übersicht und Anhang.md",
  "sourceDirName": "Theorie-Essays",
  "slug": "/essays-uebersicht-und-anhang",
  "permalink": "/docs/essays-uebersicht-und-anhang",
  "editUrl": "https://gitlab.com/commoningsystem/docusaurus/edit/master/website/docs/Theorie-Essays/Übersicht und Anhang.md",
  "version": "current",
  "sidebarPosition": 1,
  "frontMatter": {
    "sidebar_position": 1,
    "slug": "/essays-uebersicht-und-anhang"
  },
  "sidebar": "tutorialSidebar",
  "previous": {
    "title": "Reparaturprozess",
    "permalink": "/docs/reparaturprozess"
  },
  "next": {
    "title": "Der Ausdehnungsdrang moderner Commons",
    "permalink": "/docs/ausdehnungsdrang"
  }
}