{
  "unversionedId": "Theorie-Bezüge/Johannes Eulers Commoning-Definition",
  "id": "Theorie-Bezüge/Johannes Eulers Commoning-Definition",
  "isDocsHomePage": false,
  "title": "Johannes Eulers Commoning-Definition",
  "description": "Die Definitionen 'Commons' (dt. Gemeinschaffen) sind umstritten. Wir verwenden die Definition nach Johannes Euler, welcher Commons als eine soziale Form von Mitteln beschreibt, die durch den Prozess des Commonings bestimmt sind. Im O-Ton (und im Kontext auf Wasser gemünzt):",
  "source": "@site/docs/Theorie-Bezüge/Johannes Eulers Commoning-Definition.md",
  "sourceDirName": "Theorie-Bezüge",
  "slug": "/commoning-definition",
  "permalink": "/docs/commoning-definition",
  "editUrl": "https://gitlab.com/commoningsystem/docusaurus/edit/master/website/docs/Theorie-Bezüge/Johannes Eulers Commoning-Definition.md",
  "version": "current",
  "sidebarPosition": 4,
  "frontMatter": {
    "sidebar_position": 4,
    "slug": "/commoning-definition"
  },
  "sidebar": "tutorialSidebar",
  "previous": {
    "title": "Stefan Meretz zur Keimformtheorie",
    "permalink": "/docs/keimformtheorie"
  },
  "next": {
    "title": "Helfrich-Bollier: Von Commons und Sprache",
    "permalink": "/docs/commons-und-sprache"
  }
}