{
  "unversionedId": "GCS-Konzept/Erster Teil/Grundlagen zur Softwarestruktur",
  "id": "GCS-Konzept/Erster Teil/Grundlagen zur Softwarestruktur",
  "isDocsHomePage": false,
  "title": "Grundlagen zur Softwarestruktur",
  "description": "Die Struktur der Software wird im Verlauf der Textreihe im Detail dargestellt. Folgend geht es daher nur um die Grundstruktur und wie sich eine einzelne Person darin einbringen kann.",
  "source": "@site/docs/GCS-Konzept/Erster Teil/Grundlagen zur Softwarestruktur.md",
  "sourceDirName": "GCS-Konzept/Erster Teil",
  "slug": "/grundlagen-softwarestruktur",
  "permalink": "/docs/grundlagen-softwarestruktur",
  "editUrl": "https://gitlab.com/commoningsystem/docusaurus/edit/master/website/docs/GCS-Konzept/Erster Teil/Grundlagen zur Softwarestruktur.md",
  "version": "current",
  "sidebarPosition": 4,
  "frontMatter": {
    "sidebar_position": 4,
    "slug": "/grundlagen-softwarestruktur"
  },
  "sidebar": "tutorialSidebar",
  "previous": {
    "title": "Strukturformel des Commonings",
    "permalink": "/docs/strukturformel"
  },
  "next": {
    "title": "Vorwort",
    "permalink": "/docs/gcs-zweites-vorwort"
  }
}