{
  "unversionedId": "Projekt/Einstiegsprozess",
  "id": "Projekt/Einstiegsprozess",
  "isDocsHomePage": false,
  "title": "Einstiegsprozess",
  "description": "Wir haben weit mehr zu tun, als wir als Projekt-Team gerade leisten können und sind uns der meisten Arbeit wohl noch nicht einmal bewusst. Falls du dich daher einbringen willst: Fühl dich sehr willkommen!",
  "source": "@site/docs/Projekt/Einstiegsprozess.md",
  "sourceDirName": "Projekt",
  "slug": "/einstiegsprozess",
  "permalink": "/docs/einstiegsprozess",
  "editUrl": "https://gitlab.com/commoningsystem/docusaurus/edit/master/website/docs/Projekt/Einstiegsprozess.md",
  "version": "current",
  "sidebarPosition": 4,
  "frontMatter": {
    "sidebar_position": 4,
    "slug": "/einstiegsprozess"
  },
  "sidebar": "tutorialSidebar",
  "previous": {
    "title": "Beteiligungsmöglichkeiten",
    "permalink": "/docs/beteiligungsmoeglichkeiten"
  },
  "next": {
    "title": "Verhaltenskodex",
    "permalink": "/docs/verhaltenskodex"
  }
}