{
  "unversionedId": "Projekt/Beteiligungsmöglichkeiten",
  "id": "Projekt/Beteiligungsmöglichkeiten",
  "isDocsHomePage": false,
  "title": "Beteiligungsmöglichkeiten",
  "description": "Es gibt viele Bereiche, in welchen sich in das 'Global Commoning System' eingebracht werden kann und in jedem Bereich wird Unterstützung benötigt. Zur Übersicht haben wir die Bereiche in sechs Teile gegliedert:",
  "source": "@site/docs/Projekt/Beteiligungsmöglichkeiten.md",
  "sourceDirName": "Projekt",
  "slug": "/beteiligungsmoeglichkeiten",
  "permalink": "/docs/beteiligungsmoeglichkeiten",
  "editUrl": "https://gitlab.com/commoningsystem/docusaurus/edit/master/website/docs/Projekt/Beteiligungsmöglichkeiten.md",
  "version": "current",
  "sidebarPosition": 3,
  "frontMatter": {
    "sidebar_position": 3,
    "slug": "/beteiligungsmoeglichkeiten"
  },
  "sidebar": "tutorialSidebar",
  "previous": {
    "title": "Team-Kommunikation",
    "permalink": "/docs/team-kommunikation"
  },
  "next": {
    "title": "Einstiegsprozess",
    "permalink": "/docs/einstiegsprozess"
  }
}