{
  "unversionedId": "GCS-Konzept/Dritter Teil/Interaktion mit Vorschlägen und Abfragen",
  "id": "GCS-Konzept/Dritter Teil/Interaktion mit Vorschlägen und Abfragen",
  "isDocsHomePage": false,
  "title": "Interaktion mit Vorschlägen und Abfragen",
  "description": "Durch das ununterbrochenen Commoning können einander unbekannte Menschen miteinander kooperieren, um gemeinsam ihre jeweils eigenen Bedürfnisse zu befriedigen. Im →Konfigurationsprozess werden hierfür von Seiten der Software Tätigkeiten vorgeschlagen und sowohl Mittel als auch Wissen abgefragt. Die Beteiligten ihrerseits können mit diesen Vorschlägen und Abfragen entsprechend interagieren, wodurch schließlich ein Zusammenspiel von Tätigkeiten mit einer hohen Effizienz entstehen kann, die auf die Bedürfnisse der Beteiligten abzielt und sich nach ihren Fähigkeiten und Interessen richtet. Diese Interaktionsmöglichkeiten werden im ersten Unterkapitel vorgestellt und notwendige Funktionen zur Orientierung im zweiten.",
  "source": "@site/docs/GCS-Konzept/Dritter Teil/Interaktion mit Vorschlägen und Abfragen.md",
  "sourceDirName": "GCS-Konzept/Dritter Teil",
  "slug": "/interaktion",
  "permalink": "/docs/interaktion",
  "editUrl": "https://gitlab.com/commoningsystem/docusaurus/edit/master/website/docs/GCS-Konzept/Dritter Teil/Interaktion mit Vorschlägen und Abfragen.md",
  "version": "current",
  "sidebarPosition": 7,
  "frontMatter": {
    "sidebar_position": 7,
    "slug": "/interaktion"
  },
  "sidebar": "tutorialSidebar",
  "previous": {
    "title": "Kontinuität",
    "permalink": "/docs/kontinuitaet"
  },
  "next": {
    "title": "Festsetzen einer Konfiguration",
    "permalink": "/docs/festsetzen-von-konfigurationen"
  }
}