{
  "unversionedId": "Einführungen/Auswahl/Website-Beschreibung",
  "id": "Einführungen/Auswahl/Website-Beschreibung",
  "isDocsHomePage": false,
  "title": "Website-Beschreibung",
  "description": "Das Softwarekonzept für ununterbrochenes Commoning entsteht im Rahmen der Arbeiten des Commons-Instituts und geht der Vision nach, das bisher",
  "source": "@site/docs/Einführungen/Auswahl/Website-Beschreibung.md",
  "sourceDirName": "Einführungen/Auswahl",
  "slug": "/Einführungen/Auswahl/Website-Beschreibung",
  "permalink": "/docs/Einführungen/Auswahl/Website-Beschreibung",
  "editUrl": "https://gitlab.com/commoningsystem/docusaurus/edit/master/website/docs/Einführungen/Auswahl/Website-Beschreibung.md",
  "version": "current",
  "sidebarPosition": 2,
  "frontMatter": {
    "sidebar_position": 2
  },
  "sidebar": "tutorialSidebar",
  "previous": {
    "title": "Kurzbeschreibung",
    "permalink": "/docs/kurzbeschreibung"
  },
  "next": {
    "title": "Projekt-Entstehung",
    "permalink": "/docs/projekt-entstehung"
  }
}