{
  "unversionedId": "GCS-Konzept/Dritter Teil/Kontinuität",
  "id": "GCS-Konzept/Dritter Teil/Kontinuität",
  "isDocsHomePage": false,
  "title": "Kontinuität",
  "description": "Eine arbeitsteilige bzw. eine auf komplexer Kooperation beruhende Gesellschaft zeichnet sich dadurch aus, dass einzelne Tätigkeiten tendenziell nicht nur auf die Befriedigung eines einzelnen Bedürfnisses abzielen, sondern möglichst viele Bedürfnisse mit einschließen. Würde der Webstuhl in etwa nur für die Produktion von soviel Leinengewebe aufgespannt werden, wie für eine einzelne Leinwand notwendig ist, dann würde sich der dafür aufgebrachte Aufwand in keiner Weise lohnen. Der Aufwand für diese Tätigkeit lohnt sich erst, wenn über die für die einzelne Leinwand notwendige Menge hinaus gewebt, also der Bedarf von noch mehr Bedürfnissen mit einbezogen wird. Ob das Resultat der Konfiguration dann eine Leinwand oder etwa ein Rock ist, ist dabei unerheblich, wenn in der entsprechenden Konfiguration der Bedarf nach Leinengewebe ansteht. Eine Tätigkeit, die über die Befriedigung eines einzelnen Bedürfnisses hinaus geht, wird folgend als kontinuierliche Tätigkeit bezeichnet. Innerhalb der Struktur des ununterbrochenen Commonings kann eine Tätigkeit dabei kontinuierlich werden, wenn mehrere Konfigurationen an dieser Stelle miteinander vereinigt sind. Eine Tätigkeit gewinnt dabei an →[Wichtigkeit*], je mehr Prozesse der Bedürfnisbefriedigung sie ermöglicht.",
  "source": "@site/docs/GCS-Konzept/Dritter Teil/Kontinuität.md",
  "sourceDirName": "GCS-Konzept/Dritter Teil",
  "slug": "/kontinuitaet",
  "permalink": "/docs/kontinuitaet",
  "editUrl": "https://gitlab.com/commoningsystem/docusaurus/edit/master/website/docs/GCS-Konzept/Dritter Teil/Kontinuität.md",
  "version": "current",
  "sidebarPosition": 6,
  "frontMatter": {
    "sidebar_position": 6,
    "slug": "/kontinuitaet"
  },
  "sidebar": "tutorialSidebar",
  "previous": {
    "title": "Plankonfigurationen",
    "permalink": "/docs/plankonfigurationen"
  },
  "next": {
    "title": "Interaktion mit Vorschlägen und Abfragen",
    "permalink": "/docs/interaktion"
  }
}