{
  "docusaurus-plugin-content-docs": {
    "default": {
      "path": "/docs",
      "versions": [
        {
          "name": "current",
          "label": "Next",
          "isLast": true,
          "path": "/docs",
          "mainDocId": "Übersicht",
          "docs": [
            {
              "id": "Danksagungen",
              "path": "/docs/danksagungen",
              "sidebar": "tutorialSidebar"
            },
            {
              "id": "Die Issmit-App",
              "path": "/docs/issmit-app",
              "sidebar": "tutorialSidebar"
            },
            {
              "id": "Einführungen/Auswahl/Kurzbeschreibung",
              "path": "/docs/kurzbeschreibung",
              "sidebar": "tutorialSidebar"
            },
            {
              "id": "Einführungen/Auswahl/Website-Beschreibung",
              "path": "/docs/Einführungen/Auswahl/Website-Beschreibung",
              "sidebar": "tutorialSidebar"
            },
            {
              "id": "Einführungen/Beschreibung",
              "path": "/docs/einfuehrungen-beschreibung",
              "sidebar": "tutorialSidebar"
            },
            {
              "id": "Einführungen/Bestand/Barcamp Einführung",
              "path": "/docs/Einführungen/Bestand/Barcamp Einführung",
              "sidebar": "tutorialSidebar"
            },
            {
              "id": "Einführungen/Bestand/Einführung Timeless Way of Re-Production",
              "path": "/docs/einfuehrung-timeless-way",
              "sidebar": "tutorialSidebar"
            },
            {
              "id": "Einführungen/Bestand/Issmit-Crowdfunding",
              "path": "/docs/issmit-crowdfunding",
              "sidebar": "tutorialSidebar"
            },
            {
              "id": "Einführungen/Bestand/Poträt Nachbarschaftswirtschaft",
              "path": "/docs/Einführungen/Bestand/Poträt Nachbarschaftswirtschaft",
              "sidebar": "tutorialSidebar"
            },
            {
              "id": "Einführungen/Bestand/Projekt-Entstehung",
              "path": "/docs/projekt-entstehung",
              "sidebar": "tutorialSidebar"
            },
            {
              "id": "Einführungen/Videos/Issmit Kurzvortrag",
              "path": "/docs/Einführungen/Videos/Issmit Kurzvortrag",
              "sidebar": "tutorialSidebar"
            },
            {
              "id": "Einführungen/Videos/Vortrag zur Systematik",
              "path": "/docs/Einführungen/Videos/Vortrag zur Systematik",
              "sidebar": "tutorialSidebar"
            },
            {
              "id": "GCS-Konzept/Dritter Teil/Aufwand und Einheit des Konfigurationsprozesses",
              "path": "/docs/aufwand-und-einheitsbestimmung",
              "sidebar": "tutorialSidebar"
            },
            {
              "id": "GCS-Konzept/Dritter Teil/Festsetzen einer Konfiguration",
              "path": "/docs/festsetzen-von-konfigurationen",
              "sidebar": "tutorialSidebar"
            },
            {
              "id": "GCS-Konzept/Dritter Teil/Interaktion mit Vorschlägen und Abfragen",
              "path": "/docs/interaktion",
              "sidebar": "tutorialSidebar"
            },
            {
              "id": "GCS-Konzept/Dritter Teil/Konfigurationsprozess",
              "path": "/docs/konfigurationsprozess",
              "sidebar": "tutorialSidebar"
            },
            {
              "id": "GCS-Konzept/Dritter Teil/Kontinuität",
              "path": "/docs/kontinuitaet",
              "sidebar": "tutorialSidebar"
            },
            {
              "id": "GCS-Konzept/Dritter Teil/Momente des Gesamtaufwandes",
              "path": "/docs/momente-des-gesamtaufwandes",
              "sidebar": "tutorialSidebar"
            },
            {
              "id": "GCS-Konzept/Dritter Teil/Plankonfigurationen",
              "path": "/docs/plankonfigurationen",
              "sidebar": "tutorialSidebar"
            },
            {
              "id": "GCS-Konzept/Dritter Teil/Reparaturprozess",
              "path": "/docs/reparaturprozess",
              "sidebar": "tutorialSidebar"
            },
            {
              "id": "GCS-Konzept/Dritter Teil/Vorwort",
              "path": "/docs/gcs-drittes-vorwort",
              "sidebar": "tutorialSidebar"
            },
            {
              "id": "GCS-Konzept/Erster Teil/Grundlagen zur Softwarestruktur",
              "path": "/docs/grundlagen-softwarestruktur",
              "sidebar": "tutorialSidebar"
            },
            {
              "id": "GCS-Konzept/Erster Teil/Strukturformel des Commonings",
              "path": "/docs/strukturformel",
              "sidebar": "tutorialSidebar"
            },
            {
              "id": "GCS-Konzept/Erster Teil/Theorie-Vorwissen",
              "path": "/docs/theorie-vorwissen-1",
              "sidebar": "tutorialSidebar"
            },
            {
              "id": "GCS-Konzept/Erster Teil/Vorwort",
              "path": "/docs/gcs-erstes-vorwort",
              "sidebar": "tutorialSidebar"
            },
            {
              "id": "GCS-Konzept/Übersicht",
              "path": "/docs/gcs-konzept-uebersicht",
              "sidebar": "tutorialSidebar"
            },
            {
              "id": "GCS-Konzept/Zweiter Teil/Bibliothek",
              "path": "/docs/bibliothek",
              "sidebar": "tutorialSidebar"
            },
            {
              "id": "GCS-Konzept/Zweiter Teil/Fähigkeiten",
              "path": "/docs/faehigkeiten",
              "sidebar": "tutorialSidebar"
            },
            {
              "id": "GCS-Konzept/Zweiter Teil/Individueller Musterspeicher",
              "path": "/docs/individueller-musterspeicher",
              "sidebar": "tutorialSidebar"
            },
            {
              "id": "GCS-Konzept/Zweiter Teil/Konfigurationen",
              "path": "/docs/konfigurationen",
              "sidebar": "tutorialSidebar"
            },
            {
              "id": "GCS-Konzept/Zweiter Teil/Qualifikationen",
              "path": "/docs/qualifikationen",
              "sidebar": "tutorialSidebar"
            },
            {
              "id": "GCS-Konzept/Zweiter Teil/Tätigkeitsmuster",
              "path": "/docs/taetigkeitsmuster",
              "sidebar": "tutorialSidebar"
            },
            {
              "id": "GCS-Konzept/Zweiter Teil/Vorwort",
              "path": "/docs/gcs-zweites-vorwort",
              "sidebar": "tutorialSidebar"
            },
            {
              "id": "Glossar",
              "path": "/docs/glossar",
              "sidebar": "tutorialSidebar"
            },
            {
              "id": "Infrastruktur/Datenstruktur",
              "path": "/docs/datenstruktur",
              "sidebar": "tutorialSidebar"
            },
            {
              "id": "Infrastruktur/Umfeldanalyse",
              "path": "/docs/umfeldanalyse",
              "sidebar": "tutorialSidebar"
            },
            {
              "id": "Infrastruktur/Wo ist der Code",
              "path": "/docs/codefrage",
              "sidebar": "tutorialSidebar"
            },
            {
              "id": "Kontakt",
              "path": "/docs/kontakt",
              "sidebar": "tutorialSidebar"
            },
            {
              "id": "Lizenzen",
              "path": "/docs/Lizenzen",
              "sidebar": "tutorialSidebar"
            },
            {
              "id": "Projekt/Anliegen",
              "path": "/docs/anliegen",
              "sidebar": "tutorialSidebar"
            },
            {
              "id": "Projekt/Beteiligungsmöglichkeiten",
              "path": "/docs/beteiligungsmoeglichkeiten",
              "sidebar": "tutorialSidebar"
            },
            {
              "id": "Projekt/Einstiegsprozess",
              "path": "/docs/einstiegsprozess",
              "sidebar": "tutorialSidebar"
            },
            {
              "id": "Projekt/Entfaltungsnetz",
              "path": "/docs/entfaltungsnetz",
              "sidebar": "tutorialSidebar"
            },
            {
              "id": "Projekt/Podcast",
              "path": "/docs/podcast",
              "sidebar": "tutorialSidebar"
            },
            {
              "id": "Projekt/Team-Kommunikation",
              "path": "/docs/team-kommunikation",
              "sidebar": "tutorialSidebar"
            },
            {
              "id": "Projekt/Verhaltenskodex",
              "path": "/docs/verhaltenskodex",
              "sidebar": "tutorialSidebar"
            },
            {
              "id": "Theorie-Bezüge/Elinor Ostroms Designprinzipien",
              "path": "/docs/designprinzipien",
              "sidebar": "tutorialSidebar"
            },
            {
              "id": "Theorie-Bezüge/Gruppe Krisis: Manifest gegen die Arbeit",
              "path": "/docs/manifest-gegen-die-arbeit",
              "sidebar": "tutorialSidebar"
            },
            {
              "id": "Theorie-Bezüge/Helfrich-Bollier: Von Commons und Sprache",
              "path": "/docs/commons-und-sprache",
              "sidebar": "tutorialSidebar"
            },
            {
              "id": "Theorie-Bezüge/Johannes Eulers Commoning-Definition",
              "path": "/docs/commoning-definition",
              "sidebar": "tutorialSidebar"
            },
            {
              "id": "Theorie-Bezüge/Stefan Meretz zur Keimformtheorie",
              "path": "/docs/keimformtheorie",
              "sidebar": "tutorialSidebar"
            },
            {
              "id": "Theorie-Bezüge/Theorie-Distro",
              "path": "/docs/theorie-distro",
              "sidebar": "tutorialSidebar"
            },
            {
              "id": "Theorie-Essays/Der Ausdehnungsdrang moderner Commons",
              "path": "/docs/ausdehnungsdrang",
              "sidebar": "tutorialSidebar"
            },
            {
              "id": "Theorie-Essays/The Timeless Way of Re-Production",
              "path": "/docs/timeless-way-of-re-production",
              "sidebar": "tutorialSidebar"
            },
            {
              "id": "Theorie-Essays/Übersicht und Anhang",
              "path": "/docs/essays-uebersicht-und-anhang",
              "sidebar": "tutorialSidebar"
            },
            {
              "id": "Übersicht",
              "path": "/docs/uebersicht",
              "sidebar": "tutorialSidebar"
            }
          ]
        }
      ]
    }
  }
}